(module SW_CuK_L102021ML04Q_SPDT_Angled (layer F.Cu) (tedit 5F964955)
  (descr "CuK sub miniature slide switch, L series, SPDT, right angle, https://www.ckswitches.com/media/1423/l.pdf")
  (tags "switch SPDT slide")
  (fp_text reference REF** (at -0.65 -3.95) (layer F.SilkS)
    (effects (font (size 1 1) (thickness 0.15)))
  )
  (fp_text value SW_CuK_L102021ML04Q_SPDT_Angled (at 3.82 18.03) (layer F.Fab)
    (effects (font (size 1 1) (thickness 0.15)))
  )
  (fp_line (start 5.543549 7.53745) (end -4.9022 7.537449) (layer F.Fab) (width 0.1))
  (fp_line (start -4.9022 7.537449) (end -4.9022 -1.915443) (layer F.Fab) (width 0.1))
  (fp_line (start -4.9022 -1.915443) (end -4.195093 -2.62255) (layer F.Fab) (width 0.1))
  (fp_line (start -4.195093 -2.62255) (end 4.114799 -2.622549) (layer F.Fab) (width 0.1))
  (fp_line (start 4.114799 -2.622549) (end 4.1148 -3.76555) (layer F.Fab) (width 0.1))
  (fp_line (start 5.384799 -3.765549) (end 5.384799 -2.622549) (layer F.Fab) (width 0.1))
  (fp_line (start 5.384799 -2.622549) (end 14.4018 -2.622549) (layer F.Fab) (width 0.1))
  (fp_line (start 14.4018 -2.622549) (end 14.401799 7.53745) (layer F.Fab) (width 0.1))
  (fp_line (start 14.401799 7.53745) (end 5.543549 7.53745) (layer F.Fab) (width 0.1))
  (fp_line (start 5.543549 7.53745) (end 5.543549 15.135023) (layer F.Fab) (width 0.1))
  (fp_line (start 5.543549 15.135023) (end 5.315926 15.362647) (layer F.Fab) (width 0.1))
  (fp_line (start 5.315926 15.362647) (end 5.050605 15.097327) (layer F.Fab) (width 0.1))
  (fp_line (start 5.050605 15.097327) (end 4.434053 15.713879) (layer F.Fab) (width 0.1))
  (fp_line (start 4.434053 15.713879) (end 4.144247 15.424072) (layer F.Fab) (width 0.1))
  (fp_line (start 4.144247 15.424072) (end 3.69633 15.871989) (layer F.Fab) (width 0.1))
  (fp_line (start 3.69633 15.871989) (end 3.37367 15.549329) (layer F.Fab) (width 0.1))
  (fp_line (start 3.37367 15.549329) (end 3.003549 15.91945) (layer F.Fab) (width 0.1))
  (fp_line (start 3.003549 15.91945) (end 2.633429 15.549329) (layer F.Fab) (width 0.1))
  (fp_line (start 2.633429 15.549329) (end 2.310769 15.871989) (layer F.Fab) (width 0.1))
  (fp_line (start 2.310769 15.871989) (end 1.862852 15.424072) (layer F.Fab) (width 0.1))
  (fp_line (start 1.862852 15.424072) (end 1.573046 15.713879) (layer F.Fab) (width 0.1))
  (fp_line (start 1.573046 15.713879) (end 0.956494 15.097327) (layer F.Fab) (width 0.1))
  (fp_line (start 0.956494 15.097327) (end 0.691173 15.362647) (layer F.Fab) (width 0.1))
  (fp_line (start 0.691173 15.362647) (end 0.463549 15.135023) (layer F.Fab) (width 0.1))
  (fp_line (start 0.463549 15.135023) (end 0.463549 7.53745) (layer F.Fab) (width 0.1))
  (fp_line (start 14.9 16.42) (end -5.4 16.42) (layer F.CrtYd) (width 0.05))
  (fp_line (start -5.4 16.42) (end -5.4 -4.9) (layer F.CrtYd) (width 0.05))
  (fp_line (start -5.4 -4.9) (end 14.9 -4.9) (layer F.CrtYd) (width 0.05))
  (fp_line (start 14.9 -4.9) (end 14.9 16.42) (layer F.CrtYd) (width 0.05))
  (fp_line (start 14.601799 7.73745) (end -5.1022 7.737449) (layer F.SilkS) (width 0.12))
  (fp_line (start -5.1022 7.737449) (end -5.102199 -2.82255) (layer F.SilkS) (width 0.12))
  (fp_line (start -5.102199 -2.82255) (end 3.914799 -2.822549) (layer F.SilkS) (width 0.12))
  (fp_line (start 3.914799 -2.822549) (end 3.9148 -3.76555) (layer F.SilkS) (width 0.12))
  (fp_line (start 5.584799 -3.765549) (end 5.584799 -2.822549) (layer F.SilkS) (width 0.12))
  (fp_line (start 5.584799 -2.822549) (end 14.6018 -2.822549) (layer F.SilkS) (width 0.12))
  (fp_line (start 14.6018 -2.822549) (end 14.601799 7.73745) (layer F.SilkS) (width 0.12))
  (fp_line (start -5.302199 -1.915443) (end -5.302199 -3.02255) (layer F.SilkS) (width 0.12))
  (fp_line (start -5.302199 -3.02255) (end -4.195093 -3.02255) (layer F.SilkS) (width 0.12))
  (fp_text user %R (at 4.86 3.71) (layer F.Fab)
    (effects (font (size 1 1) (thickness 0.15)))
  )
  (fp_arc (start 4.7498 -3.76555) (end 5.384799 -3.765549) (angle -180) (layer F.Fab) (width 0.1))
  (fp_arc (start 4.7498 -3.76555) (end 5.584799 -3.765549) (angle -180) (layer F.SilkS) (width 0.12))
  (pad 1 thru_hole circle (at 0 0) (size 2.8 2.8) (drill 1.65) (layers *.Cu *.Mask))
  (pad 2 thru_hole circle (at 4.75 0) (size 2.8 2.8) (drill 1.65) (layers *.Cu *.Mask))
  (pad 3 thru_hole circle (at 9.5 0) (size 2.8 2.8) (drill 1.65) (layers *.Cu *.Mask))
  (model ${IREX_3DMODEL_DIR}/irex_Button_Switch_THT.3dshapes/SW_CuK_L102021ML04Q_SPDT_Angled.step
    (at (xyz 0 0 0))
    (scale (xyz 1 1 1))
    (rotate (xyz 0 0 0))
  )
)
