ISO-10303-21;
HEADER;
/* Generated by software containing ST-Developer
 * from STEP Tools, Inc. (www.steptools.com) 
 */

FILE_DESCRIPTION(
/* description */ (''),
/* implementation_level */ '2;1');

FILE_NAME(
/* name */ 
'/Users/isaac/KiCad/Libraries/irex KiCad Library/irex-kicad-packages3d
/irex_Potentiometer_THT.3dshapes/pv36w.step',
/* time_stamp */ '2021-11-25T23:29:15-06:00',
/* author */ (''),
/* organization */ (''),
/* preprocessor_version */ 'ST-DEVELOPER v18.1',
/* originating_system */ 'Autodesk Translation Framework v10.10.0.1391',

/* authorisation */ '');

FILE_SCHEMA (('AUTOMOTIVE_DESIGN { 1 0 10303 214 3 1 1 }'));
ENDSEC;

DATA;
#10=MECHANICAL_DESIGN_GEOMETRIC_PRESENTATION_REPRESENTATION('',(#18,#19,
#20,#21,#22,#23,#24,#25,#26,#27,#28,#29,#30),#973);
#11=SHAPE_REPRESENTATION_RELATIONSHIP('SRR','None',#983,#12);
#12=ADVANCED_BREP_SHAPE_REPRESENTATION('',(#13),#972);
#13=MANIFOLD_SOLID_BREP('Body1',#593);
#14=CYLINDRICAL_SURFACE('',#630,0.043);
#15=CYLINDRICAL_SURFACE('',#642,0.01);
#16=CYLINDRICAL_SURFACE('',#649,0.01);
#17=CYLINDRICAL_SURFACE('',#650,0.01);
#18=STYLED_ITEM('',(#994),#580);
#19=STYLED_ITEM('',(#994),#581);
#20=STYLED_ITEM('',(#994),#582);
#21=STYLED_ITEM('',(#994),#583);
#22=STYLED_ITEM('',(#994),#584);
#23=STYLED_ITEM('',(#994),#585);
#24=STYLED_ITEM('',(#995),#587);
#25=STYLED_ITEM('',(#995),#588);
#26=STYLED_ITEM('',(#995),#589);
#27=STYLED_ITEM('',(#995),#590);
#28=STYLED_ITEM('',(#995),#591);
#29=STYLED_ITEM('',(#995),#592);
#30=STYLED_ITEM('',(#993),#13);
#31=FACE_BOUND('',#85,.T.);
#32=FACE_BOUND('',#86,.T.);
#33=FACE_BOUND('',#87,.T.);
#34=FACE_BOUND('',#98,.T.);
#35=CIRCLE('',#613,0.01);
#36=CIRCLE('',#614,0.01);
#37=CIRCLE('',#615,0.01);
#38=CIRCLE('',#626,0.043);
#39=CIRCLE('',#631,0.043);
#40=CIRCLE('',#632,0.043);
#41=CIRCLE('',#633,0.043);
#42=CIRCLE('',#634,0.043);
#43=CIRCLE('',#635,0.043);
#44=CIRCLE('',#643,0.01);
#45=CIRCLE('',#646,0.01);
#46=CIRCLE('',#648,0.01);
#47=FACE_OUTER_BOUND('',#79,.T.);
#48=FACE_OUTER_BOUND('',#80,.T.);
#49=FACE_OUTER_BOUND('',#81,.T.);
#50=FACE_OUTER_BOUND('',#82,.T.);
#51=FACE_OUTER_BOUND('',#83,.T.);
#52=FACE_OUTER_BOUND('',#84,.T.);
#53=FACE_OUTER_BOUND('',#88,.T.);
#54=FACE_OUTER_BOUND('',#89,.T.);
#55=FACE_OUTER_BOUND('',#90,.T.);
#56=FACE_OUTER_BOUND('',#91,.T.);
#57=FACE_OUTER_BOUND('',#92,.T.);
#58=FACE_OUTER_BOUND('',#93,.T.);
#59=FACE_OUTER_BOUND('',#94,.T.);
#60=FACE_OUTER_BOUND('',#95,.T.);
#61=FACE_OUTER_BOUND('',#96,.T.);
#62=FACE_OUTER_BOUND('',#97,.T.);
#63=FACE_OUTER_BOUND('',#99,.T.);
#64=FACE_OUTER_BOUND('',#100,.T.);
#65=FACE_OUTER_BOUND('',#101,.T.);
#66=FACE_OUTER_BOUND('',#102,.T.);
#67=FACE_OUTER_BOUND('',#103,.T.);
#68=FACE_OUTER_BOUND('',#104,.T.);
#69=FACE_OUTER_BOUND('',#105,.T.);
#70=FACE_OUTER_BOUND('',#106,.T.);
#71=FACE_OUTER_BOUND('',#107,.T.);
#72=FACE_OUTER_BOUND('',#108,.T.);
#73=FACE_OUTER_BOUND('',#109,.T.);
#74=FACE_OUTER_BOUND('',#110,.T.);
#75=FACE_OUTER_BOUND('',#111,.T.);
#76=FACE_OUTER_BOUND('',#112,.T.);
#77=FACE_OUTER_BOUND('',#113,.T.);
#78=FACE_OUTER_BOUND('',#114,.T.);
#79=EDGE_LOOP('',(#377,#378,#379,#380,#381,#382,#383,#384,#385,#386,#387,
#388));
#80=EDGE_LOOP('',(#389,#390,#391,#392));
#81=EDGE_LOOP('',(#393,#394,#395,#396,#397,#398,#399,#400));
#82=EDGE_LOOP('',(#401,#402,#403,#404));
#83=EDGE_LOOP('',(#405,#406,#407,#408,#409,#410));
#84=EDGE_LOOP('',(#411,#412,#413,#414));
#85=EDGE_LOOP('',(#415));
#86=EDGE_LOOP('',(#416));
#87=EDGE_LOOP('',(#417));
#88=EDGE_LOOP('',(#418,#419,#420,#421,#422,#423));
#89=EDGE_LOOP('',(#424,#425,#426,#427));
#90=EDGE_LOOP('',(#428,#429,#430,#431,#432,#433,#434,#435));
#91=EDGE_LOOP('',(#436,#437,#438,#439,#440,#441,#442,#443));
#92=EDGE_LOOP('',(#444,#445,#446,#447));
#93=EDGE_LOOP('',(#448,#449,#450,#451));
#94=EDGE_LOOP('',(#452,#453,#454,#455));
#95=EDGE_LOOP('',(#456,#457,#458,#459));
#96=EDGE_LOOP('',(#460,#461,#462,#463));
#97=EDGE_LOOP('',(#464,#465,#466,#467,#468,#469,#470,#471));
#98=EDGE_LOOP('',(#472));
#99=EDGE_LOOP('',(#473,#474,#475,#476));
#100=EDGE_LOOP('',(#477,#478,#479,#480));
#101=EDGE_LOOP('',(#481,#482,#483,#484));
#102=EDGE_LOOP('',(#485,#486,#487,#488,#489,#490,#491,#492,#493,#494,#495,
#496));
#103=EDGE_LOOP('',(#497,#498,#499,#500));
#104=EDGE_LOOP('',(#501,#502));
#105=EDGE_LOOP('',(#503,#504));
#106=EDGE_LOOP('',(#505,#506,#507,#508));
#107=EDGE_LOOP('',(#509,#510,#511,#512,#513));
#108=EDGE_LOOP('',(#514,#515,#516,#517));
#109=EDGE_LOOP('',(#518,#519,#520,#521));
#110=EDGE_LOOP('',(#522));
#111=EDGE_LOOP('',(#523));
#112=EDGE_LOOP('',(#524));
#113=EDGE_LOOP('',(#525,#526,#527,#528));
#114=EDGE_LOOP('',(#529,#530,#531,#532));
#115=LINE('',#811,#181);
#116=LINE('',#813,#182);
#117=LINE('',#815,#183);
#118=LINE('',#817,#184);
#119=LINE('',#819,#185);
#120=LINE('',#821,#186);
#121=LINE('',#823,#187);
#122=LINE('',#825,#188);
#123=LINE('',#827,#189);
#124=LINE('',#829,#190);
#125=LINE('',#831,#191);
#126=LINE('',#832,#192);
#127=LINE('',#835,#193);
#128=LINE('',#837,#194);
#129=LINE('',#838,#195);
#130=LINE('',#841,#196);
#131=LINE('',#843,#197);
#132=LINE('',#845,#198);
#133=LINE('',#847,#199);
#134=LINE('',#849,#200);
#135=LINE('',#850,#201);
#136=LINE('',#853,#202);
#137=LINE('',#854,#203);
#138=LINE('',#857,#204);
#139=LINE('',#859,#205);
#140=LINE('',#861,#206);
#141=LINE('',#862,#207);
#142=LINE('',#865,#208);
#143=LINE('',#866,#209);
#144=LINE('',#875,#210);
#145=LINE('',#877,#211);
#146=LINE('',#879,#212);
#147=LINE('',#880,#213);
#148=LINE('',#883,#214);
#149=LINE('',#884,#215);
#150=LINE('',#888,#216);
#151=LINE('',#890,#217);
#152=LINE('',#892,#218);
#153=LINE('',#893,#219);
#154=LINE('',#895,#220);
#155=LINE('',#896,#221);
#156=LINE('',#898,#222);
#157=LINE('',#899,#223);
#158=LINE('',#900,#224);
#159=LINE('',#902,#225);
#160=LINE('',#905,#226);
#161=LINE('',#906,#227);
#162=LINE('',#909,#228);
#163=LINE('',#911,#229);
#164=LINE('',#912,#230);
#165=LINE('',#915,#231);
#166=LINE('',#917,#232);
#167=LINE('',#918,#233);
#168=LINE('',#922,#234);
#169=LINE('',#930,#235);
#170=LINE('',#934,#236);
#171=LINE('',#938,#237);
#172=LINE('',#942,#238);
#173=LINE('',#944,#239);
#174=LINE('',#946,#240);
#175=LINE('',#947,#241);
#176=LINE('',#950,#242);
#177=LINE('',#952,#243);
#178=LINE('',#958,#244);
#179=LINE('',#967,#245);
#180=LINE('',#969,#246);
#181=VECTOR('',#655,0.01997273988943);
#182=VECTOR('',#656,0.3311220544911);
#183=VECTOR('',#657,0.01997273988943);
#184=VECTOR('',#658,0.01193897275447);
#185=VECTOR('',#659,0.3350545202211);
#186=VECTOR('',#660,0.01193897275447);
#187=VECTOR('',#661,0.01997273988943);
#188=VECTOR('',#662,0.3311220544911);
#189=VECTOR('',#663,0.01997273988943);
#190=VECTOR('',#664,0.03193897275447);
#191=VECTOR('',#665,0.3350545202211);
#192=VECTOR('',#666,0.03193897275447);
#193=VECTOR('',#669,0.015);
#194=VECTOR('',#670,0.01997273988943);
#195=VECTOR('',#671,0.015);
#196=VECTOR('',#674,0.03193897275447);
#197=VECTOR('',#675,0.19);
#198=VECTOR('',#676,0.395);
#199=VECTOR('',#677,0.19);
#200=VECTOR('',#678,0.03193897275447);
#201=VECTOR('',#679,0.015);
#202=VECTOR('',#682,0.01997273988943);
#203=VECTOR('',#683,0.015);
#204=VECTOR('',#686,0.03193897275447);
#205=VECTOR('',#687,0.19);
#206=VECTOR('',#688,0.02);
#207=VECTOR('',#689,0.175);
#208=VECTOR('',#692,0.3350545202211);
#209=VECTOR('',#693,0.175);
#210=VECTOR('',#702,0.02);
#211=VECTOR('',#703,0.19);
#212=VECTOR('',#704,0.03193897275447);
#213=VECTOR('',#705,0.015);
#214=VECTOR('',#708,0.01997273988943);
#215=VECTOR('',#709,0.015);
#216=VECTOR('',#712,0.395);
#217=VECTOR('',#713,0.19);
#218=VECTOR('',#714,0.03193897275447);
#219=VECTOR('',#715,0.015);
#220=VECTOR('',#716,0.03193897275447);
#221=VECTOR('',#717,0.19);
#222=VECTOR('',#720,0.375);
#223=VECTOR('',#721,0.01997273988943);
#224=VECTOR('',#722,0.01997273988943);
#225=VECTOR('',#725,0.01997273988943);
#226=VECTOR('',#728,0.03193897275447);
#227=VECTOR('',#729,0.01997273988943);
#228=VECTOR('',#732,0.01997273988943);
#229=VECTOR('',#733,0.03193897275447);
#230=VECTOR('',#734,0.01997273988943);
#231=VECTOR('',#739,0.01997273988943);
#232=VECTOR('',#742,0.015);
#233=VECTOR('',#743,0.015);
#234=VECTOR('',#748,0.015);
#235=VECTOR('',#757,0.03);
#236=VECTOR('',#760,0.03);
#237=VECTOR('',#763,0.03);
#238=VECTOR('',#766,0.03);
#239=VECTOR('',#769,0.043);
#240=VECTOR('',#772,0.08313843876331);
#241=VECTOR('',#773,0.08313843876331);
#242=VECTOR('',#778,0.08313843876331);
#243=VECTOR('',#781,0.08313843876331);
#244=VECTOR('',#790,0.01);
#245=VECTOR('',#803,0.01);
#246=VECTOR('',#806,0.01);
#247=VERTEX_POINT('',#809);
#248=VERTEX_POINT('',#810);
#249=VERTEX_POINT('',#812);
#250=VERTEX_POINT('',#814);
#251=VERTEX_POINT('',#816);
#252=VERTEX_POINT('',#818);
#253=VERTEX_POINT('',#820);
#254=VERTEX_POINT('',#822);
#255=VERTEX_POINT('',#824);
#256=VERTEX_POINT('',#826);
#257=VERTEX_POINT('',#828);
#258=VERTEX_POINT('',#830);
#259=VERTEX_POINT('',#834);
#260=VERTEX_POINT('',#836);
#261=VERTEX_POINT('',#840);
#262=VERTEX_POINT('',#842);
#263=VERTEX_POINT('',#844);
#264=VERTEX_POINT('',#846);
#265=VERTEX_POINT('',#848);
#266=VERTEX_POINT('',#852);
#267=VERTEX_POINT('',#856);
#268=VERTEX_POINT('',#858);
#269=VERTEX_POINT('',#860);
#270=VERTEX_POINT('',#864);
#271=VERTEX_POINT('',#867);
#272=VERTEX_POINT('',#869);
#273=VERTEX_POINT('',#871);
#274=VERTEX_POINT('',#874);
#275=VERTEX_POINT('',#876);
#276=VERTEX_POINT('',#878);
#277=VERTEX_POINT('',#882);
#278=VERTEX_POINT('',#886);
#279=VERTEX_POINT('',#887);
#280=VERTEX_POINT('',#889);
#281=VERTEX_POINT('',#891);
#282=VERTEX_POINT('',#894);
#283=VERTEX_POINT('',#904);
#284=VERTEX_POINT('',#908);
#285=VERTEX_POINT('',#910);
#286=VERTEX_POINT('',#919);
#287=VERTEX_POINT('',#926);
#288=VERTEX_POINT('',#927);
#289=VERTEX_POINT('',#929);
#290=VERTEX_POINT('',#931);
#291=VERTEX_POINT('',#933);
#292=VERTEX_POINT('',#935);
#293=VERTEX_POINT('',#937);
#294=VERTEX_POINT('',#939);
#295=VERTEX_POINT('',#941);
#296=VERTEX_POINT('',#956);
#297=VERTEX_POINT('',#961);
#298=VERTEX_POINT('',#964);
#299=EDGE_CURVE('',#247,#248,#115,.T.);
#300=EDGE_CURVE('',#249,#247,#116,.T.);
#301=EDGE_CURVE('',#249,#250,#117,.T.);
#302=EDGE_CURVE('',#251,#250,#118,.T.);
#303=EDGE_CURVE('',#252,#251,#119,.T.);
#304=EDGE_CURVE('',#252,#253,#120,.T.);
#305=EDGE_CURVE('',#254,#253,#121,.T.);
#306=EDGE_CURVE('',#255,#254,#122,.T.);
#307=EDGE_CURVE('',#255,#256,#123,.T.);
#308=EDGE_CURVE('',#257,#256,#124,.T.);
#309=EDGE_CURVE('',#258,#257,#125,.T.);
#310=EDGE_CURVE('',#258,#248,#126,.T.);
#311=EDGE_CURVE('',#248,#259,#127,.T.);
#312=EDGE_CURVE('',#260,#259,#128,.T.);
#313=EDGE_CURVE('',#247,#260,#129,.T.);
#314=EDGE_CURVE('',#261,#260,#130,.T.);
#315=EDGE_CURVE('',#261,#262,#131,.T.);
#316=EDGE_CURVE('',#263,#262,#132,.T.);
#317=EDGE_CURVE('',#263,#264,#133,.T.);
#318=EDGE_CURVE('',#265,#264,#134,.T.);
#319=EDGE_CURVE('',#249,#265,#135,.T.);
#320=EDGE_CURVE('',#266,#265,#136,.T.);
#321=EDGE_CURVE('',#250,#266,#137,.T.);
#322=EDGE_CURVE('',#267,#266,#138,.T.);
#323=EDGE_CURVE('',#268,#267,#139,.T.);
#324=EDGE_CURVE('',#268,#269,#140,.T.);
#325=EDGE_CURVE('',#251,#269,#141,.T.);
#326=EDGE_CURVE('',#270,#269,#142,.T.);
#327=EDGE_CURVE('',#252,#270,#143,.T.);
#328=EDGE_CURVE('',#271,#271,#35,.T.);
#329=EDGE_CURVE('',#272,#272,#36,.T.);
#330=EDGE_CURVE('',#273,#273,#37,.T.);
#331=EDGE_CURVE('',#270,#274,#144,.T.);
#332=EDGE_CURVE('',#274,#275,#145,.T.);
#333=EDGE_CURVE('',#276,#275,#146,.T.);
#334=EDGE_CURVE('',#253,#276,#147,.T.);
#335=EDGE_CURVE('',#277,#276,#148,.T.);
#336=EDGE_CURVE('',#254,#277,#149,.T.);
#337=EDGE_CURVE('',#278,#279,#150,.T.);
#338=EDGE_CURVE('',#280,#278,#151,.T.);
#339=EDGE_CURVE('',#281,#280,#152,.T.);
#340=EDGE_CURVE('',#255,#281,#153,.T.);
#341=EDGE_CURVE('',#282,#277,#154,.T.);
#342=EDGE_CURVE('',#279,#282,#155,.T.);
#343=EDGE_CURVE('',#262,#278,#156,.T.);
#344=EDGE_CURVE('',#274,#279,#157,.T.);
#345=EDGE_CURVE('',#263,#268,#158,.T.);
#346=EDGE_CURVE('',#264,#267,#159,.T.);
#347=EDGE_CURVE('',#259,#283,#160,.T.);
#348=EDGE_CURVE('',#283,#261,#161,.T.);
#349=EDGE_CURVE('',#280,#284,#162,.T.);
#350=EDGE_CURVE('',#284,#285,#163,.T.);
#351=EDGE_CURVE('',#285,#281,#164,.T.);
#352=EDGE_CURVE('',#275,#282,#165,.T.);
#353=EDGE_CURVE('',#258,#283,#166,.T.);
#354=EDGE_CURVE('',#257,#284,#167,.T.);
#355=EDGE_CURVE('',#286,#286,#38,.T.);
#356=EDGE_CURVE('',#256,#285,#168,.T.);
#357=EDGE_CURVE('',#287,#288,#39,.T.);
#358=EDGE_CURVE('',#287,#289,#169,.T.);
#359=EDGE_CURVE('',#290,#289,#40,.T.);
#360=EDGE_CURVE('',#291,#290,#170,.T.);
#361=EDGE_CURVE('',#292,#291,#41,.T.);
#362=EDGE_CURVE('',#292,#293,#171,.T.);
#363=EDGE_CURVE('',#294,#293,#42,.T.);
#364=EDGE_CURVE('',#295,#294,#172,.T.);
#365=EDGE_CURVE('',#288,#295,#43,.T.);
#366=EDGE_CURVE('',#288,#286,#173,.T.);
#367=EDGE_CURVE('',#289,#290,#174,.T.);
#368=EDGE_CURVE('',#287,#291,#175,.T.);
#369=EDGE_CURVE('',#294,#293,#176,.T.);
#370=EDGE_CURVE('',#295,#292,#177,.T.);
#371=EDGE_CURVE('',#296,#296,#44,.T.);
#372=EDGE_CURVE('',#296,#271,#178,.T.);
#373=EDGE_CURVE('',#297,#297,#45,.T.);
#374=EDGE_CURVE('',#298,#298,#46,.T.);
#375=EDGE_CURVE('',#297,#272,#179,.T.);
#376=EDGE_CURVE('',#298,#273,#180,.T.);
#377=ORIENTED_EDGE('',*,*,#299,.F.);
#378=ORIENTED_EDGE('',*,*,#300,.F.);
#379=ORIENTED_EDGE('',*,*,#301,.T.);
#380=ORIENTED_EDGE('',*,*,#302,.F.);
#381=ORIENTED_EDGE('',*,*,#303,.F.);
#382=ORIENTED_EDGE('',*,*,#304,.T.);
#383=ORIENTED_EDGE('',*,*,#305,.F.);
#384=ORIENTED_EDGE('',*,*,#306,.F.);
#385=ORIENTED_EDGE('',*,*,#307,.T.);
#386=ORIENTED_EDGE('',*,*,#308,.F.);
#387=ORIENTED_EDGE('',*,*,#309,.F.);
#388=ORIENTED_EDGE('',*,*,#310,.T.);
#389=ORIENTED_EDGE('',*,*,#299,.T.);
#390=ORIENTED_EDGE('',*,*,#311,.T.);
#391=ORIENTED_EDGE('',*,*,#312,.F.);
#392=ORIENTED_EDGE('',*,*,#313,.F.);
#393=ORIENTED_EDGE('',*,*,#300,.T.);
#394=ORIENTED_EDGE('',*,*,#313,.T.);
#395=ORIENTED_EDGE('',*,*,#314,.F.);
#396=ORIENTED_EDGE('',*,*,#315,.T.);
#397=ORIENTED_EDGE('',*,*,#316,.F.);
#398=ORIENTED_EDGE('',*,*,#317,.T.);
#399=ORIENTED_EDGE('',*,*,#318,.F.);
#400=ORIENTED_EDGE('',*,*,#319,.F.);
#401=ORIENTED_EDGE('',*,*,#301,.F.);
#402=ORIENTED_EDGE('',*,*,#319,.T.);
#403=ORIENTED_EDGE('',*,*,#320,.F.);
#404=ORIENTED_EDGE('',*,*,#321,.F.);
#405=ORIENTED_EDGE('',*,*,#302,.T.);
#406=ORIENTED_EDGE('',*,*,#321,.T.);
#407=ORIENTED_EDGE('',*,*,#322,.F.);
#408=ORIENTED_EDGE('',*,*,#323,.F.);
#409=ORIENTED_EDGE('',*,*,#324,.T.);
#410=ORIENTED_EDGE('',*,*,#325,.F.);
#411=ORIENTED_EDGE('',*,*,#325,.T.);
#412=ORIENTED_EDGE('',*,*,#326,.F.);
#413=ORIENTED_EDGE('',*,*,#327,.F.);
#414=ORIENTED_EDGE('',*,*,#303,.T.);
#415=ORIENTED_EDGE('',*,*,#328,.F.);
#416=ORIENTED_EDGE('',*,*,#329,.F.);
#417=ORIENTED_EDGE('',*,*,#330,.F.);
#418=ORIENTED_EDGE('',*,*,#304,.F.);
#419=ORIENTED_EDGE('',*,*,#327,.T.);
#420=ORIENTED_EDGE('',*,*,#331,.T.);
#421=ORIENTED_EDGE('',*,*,#332,.T.);
#422=ORIENTED_EDGE('',*,*,#333,.F.);
#423=ORIENTED_EDGE('',*,*,#334,.F.);
#424=ORIENTED_EDGE('',*,*,#305,.T.);
#425=ORIENTED_EDGE('',*,*,#334,.T.);
#426=ORIENTED_EDGE('',*,*,#335,.F.);
#427=ORIENTED_EDGE('',*,*,#336,.F.);
#428=ORIENTED_EDGE('',*,*,#337,.F.);
#429=ORIENTED_EDGE('',*,*,#338,.F.);
#430=ORIENTED_EDGE('',*,*,#339,.F.);
#431=ORIENTED_EDGE('',*,*,#340,.F.);
#432=ORIENTED_EDGE('',*,*,#306,.T.);
#433=ORIENTED_EDGE('',*,*,#336,.T.);
#434=ORIENTED_EDGE('',*,*,#341,.F.);
#435=ORIENTED_EDGE('',*,*,#342,.F.);
#436=ORIENTED_EDGE('',*,*,#316,.T.);
#437=ORIENTED_EDGE('',*,*,#343,.T.);
#438=ORIENTED_EDGE('',*,*,#337,.T.);
#439=ORIENTED_EDGE('',*,*,#344,.F.);
#440=ORIENTED_EDGE('',*,*,#331,.F.);
#441=ORIENTED_EDGE('',*,*,#326,.T.);
#442=ORIENTED_EDGE('',*,*,#324,.F.);
#443=ORIENTED_EDGE('',*,*,#345,.F.);
#444=ORIENTED_EDGE('',*,*,#345,.T.);
#445=ORIENTED_EDGE('',*,*,#323,.T.);
#446=ORIENTED_EDGE('',*,*,#346,.F.);
#447=ORIENTED_EDGE('',*,*,#317,.F.);
#448=ORIENTED_EDGE('',*,*,#314,.T.);
#449=ORIENTED_EDGE('',*,*,#312,.T.);
#450=ORIENTED_EDGE('',*,*,#347,.T.);
#451=ORIENTED_EDGE('',*,*,#348,.T.);
#452=ORIENTED_EDGE('',*,*,#349,.T.);
#453=ORIENTED_EDGE('',*,*,#350,.T.);
#454=ORIENTED_EDGE('',*,*,#351,.T.);
#455=ORIENTED_EDGE('',*,*,#339,.T.);
#456=ORIENTED_EDGE('',*,*,#318,.T.);
#457=ORIENTED_EDGE('',*,*,#346,.T.);
#458=ORIENTED_EDGE('',*,*,#322,.T.);
#459=ORIENTED_EDGE('',*,*,#320,.T.);
#460=ORIENTED_EDGE('',*,*,#335,.T.);
#461=ORIENTED_EDGE('',*,*,#333,.T.);
#462=ORIENTED_EDGE('',*,*,#352,.T.);
#463=ORIENTED_EDGE('',*,*,#341,.T.);
#464=ORIENTED_EDGE('',*,*,#338,.T.);
#465=ORIENTED_EDGE('',*,*,#343,.F.);
#466=ORIENTED_EDGE('',*,*,#315,.F.);
#467=ORIENTED_EDGE('',*,*,#348,.F.);
#468=ORIENTED_EDGE('',*,*,#353,.F.);
#469=ORIENTED_EDGE('',*,*,#309,.T.);
#470=ORIENTED_EDGE('',*,*,#354,.T.);
#471=ORIENTED_EDGE('',*,*,#349,.F.);
#472=ORIENTED_EDGE('',*,*,#355,.F.);
#473=ORIENTED_EDGE('',*,*,#308,.T.);
#474=ORIENTED_EDGE('',*,*,#356,.T.);
#475=ORIENTED_EDGE('',*,*,#350,.F.);
#476=ORIENTED_EDGE('',*,*,#354,.F.);
#477=ORIENTED_EDGE('',*,*,#307,.F.);
#478=ORIENTED_EDGE('',*,*,#340,.T.);
#479=ORIENTED_EDGE('',*,*,#351,.F.);
#480=ORIENTED_EDGE('',*,*,#356,.F.);
#481=ORIENTED_EDGE('',*,*,#310,.F.);
#482=ORIENTED_EDGE('',*,*,#353,.T.);
#483=ORIENTED_EDGE('',*,*,#347,.F.);
#484=ORIENTED_EDGE('',*,*,#311,.F.);
#485=ORIENTED_EDGE('',*,*,#357,.F.);
#486=ORIENTED_EDGE('',*,*,#358,.T.);
#487=ORIENTED_EDGE('',*,*,#359,.F.);
#488=ORIENTED_EDGE('',*,*,#360,.F.);
#489=ORIENTED_EDGE('',*,*,#361,.F.);
#490=ORIENTED_EDGE('',*,*,#362,.T.);
#491=ORIENTED_EDGE('',*,*,#363,.F.);
#492=ORIENTED_EDGE('',*,*,#364,.F.);
#493=ORIENTED_EDGE('',*,*,#365,.F.);
#494=ORIENTED_EDGE('',*,*,#366,.T.);
#495=ORIENTED_EDGE('',*,*,#355,.T.);
#496=ORIENTED_EDGE('',*,*,#366,.F.);
#497=ORIENTED_EDGE('',*,*,#367,.F.);
#498=ORIENTED_EDGE('',*,*,#358,.F.);
#499=ORIENTED_EDGE('',*,*,#368,.T.);
#500=ORIENTED_EDGE('',*,*,#360,.T.);
#501=ORIENTED_EDGE('',*,*,#367,.T.);
#502=ORIENTED_EDGE('',*,*,#359,.T.);
#503=ORIENTED_EDGE('',*,*,#369,.F.);
#504=ORIENTED_EDGE('',*,*,#363,.T.);
#505=ORIENTED_EDGE('',*,*,#369,.T.);
#506=ORIENTED_EDGE('',*,*,#362,.F.);
#507=ORIENTED_EDGE('',*,*,#370,.F.);
#508=ORIENTED_EDGE('',*,*,#364,.T.);
#509=ORIENTED_EDGE('',*,*,#361,.T.);
#510=ORIENTED_EDGE('',*,*,#368,.F.);
#511=ORIENTED_EDGE('',*,*,#357,.T.);
#512=ORIENTED_EDGE('',*,*,#365,.T.);
#513=ORIENTED_EDGE('',*,*,#370,.T.);
#514=ORIENTED_EDGE('',*,*,#344,.T.);
#515=ORIENTED_EDGE('',*,*,#342,.T.);
#516=ORIENTED_EDGE('',*,*,#352,.F.);
#517=ORIENTED_EDGE('',*,*,#332,.F.);
#518=ORIENTED_EDGE('',*,*,#371,.F.);
#519=ORIENTED_EDGE('',*,*,#372,.T.);
#520=ORIENTED_EDGE('',*,*,#328,.T.);
#521=ORIENTED_EDGE('',*,*,#372,.F.);
#522=ORIENTED_EDGE('',*,*,#371,.T.);
#523=ORIENTED_EDGE('',*,*,#373,.T.);
#524=ORIENTED_EDGE('',*,*,#374,.T.);
#525=ORIENTED_EDGE('',*,*,#373,.F.);
#526=ORIENTED_EDGE('',*,*,#375,.T.);
#527=ORIENTED_EDGE('',*,*,#329,.T.);
#528=ORIENTED_EDGE('',*,*,#375,.F.);
#529=ORIENTED_EDGE('',*,*,#374,.F.);
#530=ORIENTED_EDGE('',*,*,#376,.T.);
#531=ORIENTED_EDGE('',*,*,#330,.T.);
#532=ORIENTED_EDGE('',*,*,#376,.F.);
#533=PLANE('',#607);
#534=PLANE('',#608);
#535=PLANE('',#609);
#536=PLANE('',#610);
#537=PLANE('',#611);
#538=PLANE('',#612);
#539=PLANE('',#616);
#540=PLANE('',#617);
#541=PLANE('',#618);
#542=PLANE('',#619);
#543=PLANE('',#620);
#544=PLANE('',#621);
#545=PLANE('',#622);
#546=PLANE('',#623);
#547=PLANE('',#624);
#548=PLANE('',#625);
#549=PLANE('',#627);
#550=PLANE('',#628);
#551=PLANE('',#629);
#552=PLANE('',#636);
#553=PLANE('',#637);
#554=PLANE('',#638);
#555=PLANE('',#639);
#556=PLANE('',#640);
#557=PLANE('',#641);
#558=PLANE('',#644);
#559=PLANE('',#645);
#560=PLANE('',#647);
#561=ADVANCED_FACE('',(#47),#533,.F.);
#562=ADVANCED_FACE('',(#48),#534,.T.);
#563=ADVANCED_FACE('',(#49),#535,.T.);
#564=ADVANCED_FACE('',(#50),#536,.T.);
#565=ADVANCED_FACE('',(#51),#537,.T.);
#566=ADVANCED_FACE('',(#52,#31,#32,#33),#538,.T.);
#567=ADVANCED_FACE('',(#53),#539,.T.);
#568=ADVANCED_FACE('',(#54),#540,.T.);
#569=ADVANCED_FACE('',(#55),#541,.T.);
#570=ADVANCED_FACE('',(#56),#542,.T.);
#571=ADVANCED_FACE('',(#57),#543,.T.);
#572=ADVANCED_FACE('',(#58),#544,.T.);
#573=ADVANCED_FACE('',(#59),#545,.T.);
#574=ADVANCED_FACE('',(#60),#546,.T.);
#575=ADVANCED_FACE('',(#61),#547,.T.);
#576=ADVANCED_FACE('',(#62,#34),#548,.T.);
#577=ADVANCED_FACE('',(#63),#549,.T.);
#578=ADVANCED_FACE('',(#64),#550,.T.);
#579=ADVANCED_FACE('',(#65),#551,.T.);
#580=ADVANCED_FACE('',(#66),#14,.T.);
#581=ADVANCED_FACE('',(#67),#552,.F.);
#582=ADVANCED_FACE('',(#68),#553,.T.);
#583=ADVANCED_FACE('',(#69),#554,.T.);
#584=ADVANCED_FACE('',(#70),#555,.F.);
#585=ADVANCED_FACE('',(#71),#556,.F.);
#586=ADVANCED_FACE('',(#72),#557,.T.);
#587=ADVANCED_FACE('',(#73),#15,.T.);
#588=ADVANCED_FACE('',(#74),#558,.T.);
#589=ADVANCED_FACE('',(#75),#559,.T.);
#590=ADVANCED_FACE('',(#76),#560,.T.);
#591=ADVANCED_FACE('',(#77),#16,.T.);
#592=ADVANCED_FACE('',(#78),#17,.T.);
#593=CLOSED_SHELL('',(#561,#562,#563,#564,#565,#566,#567,#568,#569,#570,
#571,#572,#573,#574,#575,#576,#577,#578,#579,#580,#581,#582,#583,#584,#585,
#586,#587,#588,#589,#590,#591,#592));
#594=DERIVED_UNIT_ELEMENT(#596,1.);
#595=DERIVED_UNIT_ELEMENT(#977,-3.);
#596=(
MASS_UNIT()
NAMED_UNIT(*)
SI_UNIT(.KILO.,.GRAM.)
);
#597=DERIVED_UNIT((#594,#595));
#598=MEASURE_REPRESENTATION_ITEM('density measure',
POSITIVE_RATIO_MEASURE(7850.),#597);
#599=PROPERTY_DEFINITION_REPRESENTATION(#604,#601);
#600=PROPERTY_DEFINITION_REPRESENTATION(#605,#602);
#601=REPRESENTATION('material name',(#603),#972);
#602=REPRESENTATION('density',(#598),#972);
#603=DESCRIPTIVE_REPRESENTATION_ITEM('Steel','Steel');
#604=PROPERTY_DEFINITION('material property','material name',#985);
#605=PROPERTY_DEFINITION('material property','density of part',#985);
#606=AXIS2_PLACEMENT_3D('placement',#807,#651,#652);
#607=AXIS2_PLACEMENT_3D('',#808,#653,#654);
#608=AXIS2_PLACEMENT_3D('',#833,#667,#668);
#609=AXIS2_PLACEMENT_3D('',#839,#672,#673);
#610=AXIS2_PLACEMENT_3D('',#851,#680,#681);
#611=AXIS2_PLACEMENT_3D('',#855,#684,#685);
#612=AXIS2_PLACEMENT_3D('',#863,#690,#691);
#613=AXIS2_PLACEMENT_3D('',#868,#694,#695);
#614=AXIS2_PLACEMENT_3D('',#870,#696,#697);
#615=AXIS2_PLACEMENT_3D('',#872,#698,#699);
#616=AXIS2_PLACEMENT_3D('',#873,#700,#701);
#617=AXIS2_PLACEMENT_3D('',#881,#706,#707);
#618=AXIS2_PLACEMENT_3D('',#885,#710,#711);
#619=AXIS2_PLACEMENT_3D('',#897,#718,#719);
#620=AXIS2_PLACEMENT_3D('',#901,#723,#724);
#621=AXIS2_PLACEMENT_3D('',#903,#726,#727);
#622=AXIS2_PLACEMENT_3D('',#907,#730,#731);
#623=AXIS2_PLACEMENT_3D('',#913,#735,#736);
#624=AXIS2_PLACEMENT_3D('',#914,#737,#738);
#625=AXIS2_PLACEMENT_3D('',#916,#740,#741);
#626=AXIS2_PLACEMENT_3D('',#920,#744,#745);
#627=AXIS2_PLACEMENT_3D('',#921,#746,#747);
#628=AXIS2_PLACEMENT_3D('',#923,#749,#750);
#629=AXIS2_PLACEMENT_3D('',#924,#751,#752);
#630=AXIS2_PLACEMENT_3D('',#925,#753,#754);
#631=AXIS2_PLACEMENT_3D('',#928,#755,#756);
#632=AXIS2_PLACEMENT_3D('',#932,#758,#759);
#633=AXIS2_PLACEMENT_3D('',#936,#761,#762);
#634=AXIS2_PLACEMENT_3D('',#940,#764,#765);
#635=AXIS2_PLACEMENT_3D('',#943,#767,#768);
#636=AXIS2_PLACEMENT_3D('',#945,#770,#771);
#637=AXIS2_PLACEMENT_3D('',#948,#774,#775);
#638=AXIS2_PLACEMENT_3D('',#949,#776,#777);
#639=AXIS2_PLACEMENT_3D('',#951,#779,#780);
#640=AXIS2_PLACEMENT_3D('',#953,#782,#783);
#641=AXIS2_PLACEMENT_3D('',#954,#784,#785);
#642=AXIS2_PLACEMENT_3D('',#955,#786,#787);
#643=AXIS2_PLACEMENT_3D('',#957,#788,#789);
#644=AXIS2_PLACEMENT_3D('',#959,#791,#792);
#645=AXIS2_PLACEMENT_3D('',#960,#793,#794);
#646=AXIS2_PLACEMENT_3D('',#962,#795,#796);
#647=AXIS2_PLACEMENT_3D('',#963,#797,#798);
#648=AXIS2_PLACEMENT_3D('',#965,#799,#800);
#649=AXIS2_PLACEMENT_3D('',#966,#801,#802);
#650=AXIS2_PLACEMENT_3D('',#968,#804,#805);
#651=DIRECTION('axis',(0.,0.,1.));
#652=DIRECTION('refdir',(1.,0.,0.));
#653=DIRECTION('center_axis',(0.,0.,1.));
#654=DIRECTION('ref_axis',(1.,0.,0.));
#655=DIRECTION('',(0.,-1.,0.));
#656=DIRECTION('',(-1.,0.,0.));
#657=DIRECTION('',(0.,-1.,0.));
#658=DIRECTION('',(-1.,0.,0.));
#659=DIRECTION('',(0.,1.,0.));
#660=DIRECTION('',(-1.,0.,0.));
#661=DIRECTION('',(0.,1.,0.));
#662=DIRECTION('',(1.,0.,0.));
#663=DIRECTION('',(0.,1.,0.));
#664=DIRECTION('',(1.,0.,0.));
#665=DIRECTION('',(0.,-1.,0.));
#666=DIRECTION('',(1.,0.,0.));
#667=DIRECTION('center_axis',(1.,0.,0.));
#668=DIRECTION('ref_axis',(0.,-1.,0.));
#669=DIRECTION('',(0.,0.,-1.));
#670=DIRECTION('',(0.,-1.,0.));
#671=DIRECTION('',(0.,0.,-1.));
#672=DIRECTION('center_axis',(0.,1.,0.));
#673=DIRECTION('ref_axis',(-1.,0.,0.));
#674=DIRECTION('',(1.,0.,0.));
#675=DIRECTION('',(0.,0.,1.));
#676=DIRECTION('',(-1.,0.,0.));
#677=DIRECTION('',(0.,0.,-1.));
#678=DIRECTION('',(1.,0.,0.));
#679=DIRECTION('',(0.,0.,-1.));
#680=DIRECTION('center_axis',(-1.,0.,0.));
#681=DIRECTION('ref_axis',(0.,1.,0.));
#682=DIRECTION('',(0.,1.,0.));
#683=DIRECTION('',(0.,0.,-1.));
#684=DIRECTION('center_axis',(0.,-1.,0.));
#685=DIRECTION('ref_axis',(-1.,0.,0.));
#686=DIRECTION('',(-1.,0.,0.));
#687=DIRECTION('',(0.,0.,-1.));
#688=DIRECTION('',(-1.,0.,0.));
#689=DIRECTION('',(0.,0.,1.));
#690=DIRECTION('center_axis',(1.,0.,0.));
#691=DIRECTION('ref_axis',(0.,1.,0.));
#692=DIRECTION('',(0.,1.,0.));
#693=DIRECTION('',(0.,0.,1.));
#694=DIRECTION('center_axis',(1.,0.,0.));
#695=DIRECTION('ref_axis',(0.,0.,-1.));
#696=DIRECTION('center_axis',(1.,0.,0.));
#697=DIRECTION('ref_axis',(0.,0.,-1.));
#698=DIRECTION('center_axis',(1.,0.,0.));
#699=DIRECTION('ref_axis',(0.,0.,-1.));
#700=DIRECTION('center_axis',(0.,1.,0.));
#701=DIRECTION('ref_axis',(1.,0.,0.));
#702=DIRECTION('',(1.,0.,0.));
#703=DIRECTION('',(0.,0.,-1.));
#704=DIRECTION('',(1.,0.,0.));
#705=DIRECTION('',(0.,0.,-1.));
#706=DIRECTION('center_axis',(-1.,0.,0.));
#707=DIRECTION('ref_axis',(0.,1.,0.));
#708=DIRECTION('',(0.,1.,0.));
#709=DIRECTION('',(0.,0.,-1.));
#710=DIRECTION('center_axis',(0.,-1.,0.));
#711=DIRECTION('ref_axis',(1.,0.,0.));
#712=DIRECTION('',(1.,0.,0.));
#713=DIRECTION('',(0.,0.,1.));
#714=DIRECTION('',(-1.,0.,0.));
#715=DIRECTION('',(0.,0.,-1.));
#716=DIRECTION('',(-1.,0.,0.));
#717=DIRECTION('',(0.,0.,-1.));
#718=DIRECTION('center_axis',(0.,0.,1.));
#719=DIRECTION('ref_axis',(1.,0.,0.));
#720=DIRECTION('',(0.,-1.,0.));
#721=DIRECTION('',(0.,-1.,0.));
#722=DIRECTION('',(0.,-1.,0.));
#723=DIRECTION('center_axis',(1.,0.,0.));
#724=DIRECTION('ref_axis',(0.,-1.,0.));
#725=DIRECTION('',(0.,-1.,0.));
#726=DIRECTION('center_axis',(0.,0.,-1.));
#727=DIRECTION('ref_axis',(0.,-1.,0.));
#728=DIRECTION('',(-1.,0.,0.));
#729=DIRECTION('',(0.,1.,0.));
#730=DIRECTION('center_axis',(0.,0.,-1.));
#731=DIRECTION('ref_axis',(0.,-1.,0.));
#732=DIRECTION('',(0.,1.,0.));
#733=DIRECTION('',(1.,0.,0.));
#734=DIRECTION('',(0.,-1.,0.));
#735=DIRECTION('center_axis',(0.,0.,-1.));
#736=DIRECTION('ref_axis',(0.,-1.,0.));
#737=DIRECTION('center_axis',(0.,0.,-1.));
#738=DIRECTION('ref_axis',(0.,-1.,0.));
#739=DIRECTION('',(0.,-1.,0.));
#740=DIRECTION('center_axis',(-1.,0.,0.));
#741=DIRECTION('ref_axis',(0.,-1.,0.));
#742=DIRECTION('',(0.,0.,-1.));
#743=DIRECTION('',(0.,0.,-1.));
#744=DIRECTION('center_axis',(-1.,0.,0.));
#745=DIRECTION('ref_axis',(0.,0.,-1.));
#746=DIRECTION('center_axis',(0.,1.,0.));
#747=DIRECTION('ref_axis',(1.,0.,0.));
#748=DIRECTION('',(0.,0.,-1.));
#749=DIRECTION('center_axis',(1.,0.,0.));
#750=DIRECTION('ref_axis',(0.,-1.,0.));
#751=DIRECTION('center_axis',(0.,-1.,0.));
#752=DIRECTION('ref_axis',(-1.,0.,0.));
#753=DIRECTION('center_axis',(-1.,0.,0.));
#754=DIRECTION('ref_axis',(0.,0.,-1.));
#755=DIRECTION('center_axis',(-1.,0.,0.));
#756=DIRECTION('ref_axis',(0.,-0.25581395348839,0.966726032131462));
#757=DIRECTION('',(-1.,0.,0.));
#758=DIRECTION('center_axis',(-1.,0.,0.));
#759=DIRECTION('ref_axis',(0.,-0.25581395348839,-0.966726032131462));
#760=DIRECTION('',(-1.,0.,0.));
#761=DIRECTION('center_axis',(-1.,0.,0.));
#762=DIRECTION('ref_axis',(0.,0.25581395348839,-0.966726032131462));
#763=DIRECTION('',(-1.,0.,0.));
#764=DIRECTION('center_axis',(-1.,0.,0.));
#765=DIRECTION('ref_axis',(0.,0.25581395348839,0.966726032131462));
#766=DIRECTION('',(-1.,0.,0.));
#767=DIRECTION('center_axis',(-1.,0.,0.));
#768=DIRECTION('ref_axis',(0.,-0.25581395348839,0.966726032131462));
#769=DIRECTION('',(1.,0.,0.));
#770=DIRECTION('center_axis',(0.,-1.,0.));
#771=DIRECTION('ref_axis',(1.,0.,0.));
#772=DIRECTION('',(0.,0.,-1.));
#773=DIRECTION('',(0.,0.,-1.));
#774=DIRECTION('center_axis',(-1.,0.,0.));
#775=DIRECTION('ref_axis',(0.,0.,-1.));
#776=DIRECTION('center_axis',(-1.,0.,0.));
#777=DIRECTION('ref_axis',(0.,0.,-1.));
#778=DIRECTION('',(0.,0.,-1.));
#779=DIRECTION('center_axis',(0.,1.,0.));
#780=DIRECTION('ref_axis',(-1.,0.,0.));
#781=DIRECTION('',(0.,0.,-1.));
#782=DIRECTION('center_axis',(1.,0.,0.));
#783=DIRECTION('ref_axis',(0.,1.,0.));
#784=DIRECTION('center_axis',(1.,0.,0.));
#785=DIRECTION('ref_axis',(0.,-1.,0.));
#786=DIRECTION('center_axis',(1.,0.,0.));
#787=DIRECTION('ref_axis',(0.,0.,-1.));
#788=DIRECTION('center_axis',(1.,0.,0.));
#789=DIRECTION('ref_axis',(0.,0.,-1.));
#790=DIRECTION('',(-1.,0.,0.));
#791=DIRECTION('center_axis',(1.,0.,0.));
#792=DIRECTION('ref_axis',(0.,0.,-1.));
#793=DIRECTION('center_axis',(1.,0.,0.));
#794=DIRECTION('ref_axis',(0.,0.,-1.));
#795=DIRECTION('center_axis',(1.,0.,0.));
#796=DIRECTION('ref_axis',(0.,0.,-1.));
#797=DIRECTION('center_axis',(1.,0.,0.));
#798=DIRECTION('ref_axis',(0.,0.,-1.));
#799=DIRECTION('center_axis',(1.,0.,0.));
#800=DIRECTION('ref_axis',(0.,0.,-1.));
#801=DIRECTION('center_axis',(1.,0.,0.));
#802=DIRECTION('ref_axis',(0.,0.,-1.));
#803=DIRECTION('',(-1.,0.,0.));
#804=DIRECTION('center_axis',(1.,0.,0.));
#805=DIRECTION('ref_axis',(0.,0.,-1.));
#806=DIRECTION('',(-1.,0.,0.));
#807=CARTESIAN_POINT('',(0.,0.,0.));
#808=CARTESIAN_POINT('Origin',(0.,0.,0.));
#809=CARTESIAN_POINT('',(0.03193897275447,0.,0.));
#810=CARTESIAN_POINT('',(0.03193897275447,-0.01997273988943,0.));
#811=CARTESIAN_POINT('',(0.03193897275447,0.,0.));
#812=CARTESIAN_POINT('',(0.3630610272455,0.,0.));
#813=CARTESIAN_POINT('',(0.3630610272455,0.,0.));
#814=CARTESIAN_POINT('',(0.3630610272455,-0.01997273988943,0.));
#815=CARTESIAN_POINT('',(0.3630610272455,0.,0.));
#816=CARTESIAN_POINT('',(0.375,-0.01997273988943,0.));
#817=CARTESIAN_POINT('',(0.375,-0.01997273988943,0.));
#818=CARTESIAN_POINT('',(0.375,-0.3550272601106,0.));
#819=CARTESIAN_POINT('',(0.375,-0.3550272601106,0.));
#820=CARTESIAN_POINT('',(0.3630610272455,-0.3550272601106,0.));
#821=CARTESIAN_POINT('',(0.375,-0.3550272601106,0.));
#822=CARTESIAN_POINT('',(0.3630610272455,-0.375,0.));
#823=CARTESIAN_POINT('',(0.3630610272455,-0.375,0.));
#824=CARTESIAN_POINT('',(0.03193897275447,-0.375,0.));
#825=CARTESIAN_POINT('',(0.03193897275447,-0.375,0.));
#826=CARTESIAN_POINT('',(0.03193897275447,-0.3550272601106,0.));
#827=CARTESIAN_POINT('',(0.03193897275447,-0.375,0.));
#828=CARTESIAN_POINT('',(0.,-0.3550272601106,0.));
#829=CARTESIAN_POINT('',(0.,-0.3550272601106,0.));
#830=CARTESIAN_POINT('',(0.,-0.01997273988943,0.));
#831=CARTESIAN_POINT('',(0.,-0.01997273988943,0.));
#832=CARTESIAN_POINT('',(0.,-0.01997273988943,0.));
#833=CARTESIAN_POINT('Origin',(0.03193897275447,0.,0.175));
#834=CARTESIAN_POINT('',(0.03193897275447,-0.01997273988943,-0.015));
#835=CARTESIAN_POINT('',(0.03193897275447,-0.01997273988943,0.));
#836=CARTESIAN_POINT('',(0.03193897275447,0.,-0.015));
#837=CARTESIAN_POINT('',(0.03193897275447,0.,-0.015));
#838=CARTESIAN_POINT('',(0.03193897275447,0.,0.));
#839=CARTESIAN_POINT('Origin',(0.375,0.,0.));
#840=CARTESIAN_POINT('',(0.,0.,-0.015));
#841=CARTESIAN_POINT('',(0.,0.,-0.015));
#842=CARTESIAN_POINT('',(0.,0.,0.175));
#843=CARTESIAN_POINT('',(0.,0.,-0.015));
#844=CARTESIAN_POINT('',(0.395,0.,0.175));
#845=CARTESIAN_POINT('',(0.395,0.,0.175));
#846=CARTESIAN_POINT('',(0.395,0.,-0.015));
#847=CARTESIAN_POINT('',(0.395,0.,0.175));
#848=CARTESIAN_POINT('',(0.3630610272455,0.,-0.015));
#849=CARTESIAN_POINT('',(0.3630610272455,0.,-0.015));
#850=CARTESIAN_POINT('',(0.3630610272455,0.,0.));
#851=CARTESIAN_POINT('Origin',(0.3630610272455,-0.01997273988943,0.175));
#852=CARTESIAN_POINT('',(0.3630610272455,-0.01997273988943,-0.015));
#853=CARTESIAN_POINT('',(0.3630610272455,-0.01997273988943,-0.015));
#854=CARTESIAN_POINT('',(0.3630610272455,-0.01997273988943,0.));
#855=CARTESIAN_POINT('Origin',(0.395,-0.01997273988943,0.175));
#856=CARTESIAN_POINT('',(0.395,-0.01997273988943,-0.015));
#857=CARTESIAN_POINT('',(0.395,-0.01997273988943,-0.015));
#858=CARTESIAN_POINT('',(0.395,-0.01997273988943,0.175));
#859=CARTESIAN_POINT('',(0.395,-0.01997273988943,0.175));
#860=CARTESIAN_POINT('',(0.375,-0.01997273988943,0.175));
#861=CARTESIAN_POINT('',(0.395,-0.01997273988943,0.175));
#862=CARTESIAN_POINT('',(0.375,-0.01997273988943,0.));
#863=CARTESIAN_POINT('Origin',(0.375,-0.375,0.));
#864=CARTESIAN_POINT('',(0.375,-0.3550272601106,0.175));
#865=CARTESIAN_POINT('',(0.375,-0.3550272601106,0.175));
#866=CARTESIAN_POINT('',(0.375,-0.3550272601106,0.));
#867=CARTESIAN_POINT('',(0.375,-0.0875,0.09));
#868=CARTESIAN_POINT('Origin',(0.375,-0.0875,0.08));
#869=CARTESIAN_POINT('',(0.375,-0.1875,0.09));
#870=CARTESIAN_POINT('Origin',(0.375,-0.1875,0.08));
#871=CARTESIAN_POINT('',(0.375,-0.2875,0.09));
#872=CARTESIAN_POINT('Origin',(0.375,-0.2875,0.08));
#873=CARTESIAN_POINT('Origin',(0.3630610272455,-0.3550272601106,0.175));
#874=CARTESIAN_POINT('',(0.395,-0.3550272601106,0.175));
#875=CARTESIAN_POINT('',(0.375,-0.3550272601106,0.175));
#876=CARTESIAN_POINT('',(0.395,-0.3550272601106,-0.015));
#877=CARTESIAN_POINT('',(0.395,-0.3550272601106,0.175));
#878=CARTESIAN_POINT('',(0.3630610272455,-0.3550272601106,-0.015));
#879=CARTESIAN_POINT('',(0.3630610272455,-0.3550272601106,-0.015));
#880=CARTESIAN_POINT('',(0.3630610272455,-0.3550272601106,0.));
#881=CARTESIAN_POINT('Origin',(0.3630610272455,-0.375,0.175));
#882=CARTESIAN_POINT('',(0.3630610272455,-0.375,-0.015));
#883=CARTESIAN_POINT('',(0.3630610272455,-0.375,-0.015));
#884=CARTESIAN_POINT('',(0.3630610272455,-0.375,0.));
#885=CARTESIAN_POINT('Origin',(0.,-0.375,0.));
#886=CARTESIAN_POINT('',(0.,-0.375,0.175));
#887=CARTESIAN_POINT('',(0.395,-0.375,0.175));
#888=CARTESIAN_POINT('',(0.,-0.375,0.175));
#889=CARTESIAN_POINT('',(0.,-0.375,-0.015));
#890=CARTESIAN_POINT('',(0.,-0.375,-0.015));
#891=CARTESIAN_POINT('',(0.03193897275447,-0.375,-0.015));
#892=CARTESIAN_POINT('',(0.03193897275447,-0.375,-0.015));
#893=CARTESIAN_POINT('',(0.03193897275447,-0.375,0.));
#894=CARTESIAN_POINT('',(0.395,-0.375,-0.015));
#895=CARTESIAN_POINT('',(0.395,-0.375,-0.015));
#896=CARTESIAN_POINT('',(0.395,-0.375,0.175));
#897=CARTESIAN_POINT('Origin',(0.,0.,0.175));
#898=CARTESIAN_POINT('',(0.,0.,0.175));
#899=CARTESIAN_POINT('',(0.395,-0.3550272601106,0.175));
#900=CARTESIAN_POINT('',(0.395,0.,0.175));
#901=CARTESIAN_POINT('Origin',(0.395,0.,0.175));
#902=CARTESIAN_POINT('',(0.395,0.,-0.015));
#903=CARTESIAN_POINT('Origin',(0.,0.,-0.015));
#904=CARTESIAN_POINT('',(0.,-0.01997273988943,-0.015));
#905=CARTESIAN_POINT('',(0.03193897275447,-0.01997273988943,-0.015));
#906=CARTESIAN_POINT('',(0.,-0.01997273988943,-0.015));
#907=CARTESIAN_POINT('Origin',(0.,0.,-0.015));
#908=CARTESIAN_POINT('',(0.,-0.3550272601106,-0.015));
#909=CARTESIAN_POINT('',(0.,-0.375,-0.015));
#910=CARTESIAN_POINT('',(0.03193897275447,-0.3550272601106,-0.015));
#911=CARTESIAN_POINT('',(0.,-0.3550272601106,-0.015));
#912=CARTESIAN_POINT('',(0.03193897275447,-0.3550272601106,-0.015));
#913=CARTESIAN_POINT('Origin',(0.,0.,-0.015));
#914=CARTESIAN_POINT('Origin',(0.,0.,-0.015));
#915=CARTESIAN_POINT('',(0.395,-0.3550272601106,-0.015));
#916=CARTESIAN_POINT('Origin',(0.,0.,0.));
#917=CARTESIAN_POINT('',(0.,-0.01997273988943,0.));
#918=CARTESIAN_POINT('',(0.,-0.3550272601106,0.));
#919=CARTESIAN_POINT('',(0.,-0.05,0.168));
#920=CARTESIAN_POINT('Origin',(0.,-0.05,0.125));
#921=CARTESIAN_POINT('Origin',(0.,-0.3550272601106,0.175));
#922=CARTESIAN_POINT('',(0.03193897275447,-0.3550272601106,0.));
#923=CARTESIAN_POINT('Origin',(0.03193897275447,-0.3550272601106,0.175));
#924=CARTESIAN_POINT('Origin',(0.03193897275447,-0.01997273988943,0.175));
#925=CARTESIAN_POINT('Origin',(0.,-0.05,0.125));
#926=CARTESIAN_POINT('',(-0.03,-0.061,0.1665692193817));
#927=CARTESIAN_POINT('',(-0.03,-0.05,0.168));
#928=CARTESIAN_POINT('Origin',(-0.03,-0.05,0.125));
#929=CARTESIAN_POINT('',(-0.06,-0.061,0.1665692193817));
#930=CARTESIAN_POINT('',(-0.03,-0.061,0.1665692193817));
#931=CARTESIAN_POINT('',(-0.06,-0.061,0.08343078061835));
#932=CARTESIAN_POINT('Origin',(-0.06,-0.05,0.125));
#933=CARTESIAN_POINT('',(-0.03,-0.061,0.08343078061835));
#934=CARTESIAN_POINT('',(-0.03,-0.061,0.08343078061835));
#935=CARTESIAN_POINT('',(-0.03,-0.039,0.08343078061835));
#936=CARTESIAN_POINT('Origin',(-0.03,-0.05,0.125));
#937=CARTESIAN_POINT('',(-0.06,-0.039,0.08343078061835));
#938=CARTESIAN_POINT('',(-0.03,-0.039,0.08343078061835));
#939=CARTESIAN_POINT('',(-0.06,-0.039,0.1665692193817));
#940=CARTESIAN_POINT('Origin',(-0.06,-0.05,0.125));
#941=CARTESIAN_POINT('',(-0.03,-0.039,0.1665692193817));
#942=CARTESIAN_POINT('',(-0.03,-0.039,0.1665692193817));
#943=CARTESIAN_POINT('Origin',(-0.03,-0.05,0.125));
#944=CARTESIAN_POINT('',(0.,-0.05,0.168));
#945=CARTESIAN_POINT('Origin',(-0.06,-0.061,0.175));
#946=CARTESIAN_POINT('',(-0.06,-0.061,0.1665692193817));
#947=CARTESIAN_POINT('',(-0.03,-0.061,0.1665692193817));
#948=CARTESIAN_POINT('Origin',(-0.06,0.,0.));
#949=CARTESIAN_POINT('Origin',(-0.06,0.,0.));
#950=CARTESIAN_POINT('',(-0.06,-0.039,0.1665692193817));
#951=CARTESIAN_POINT('Origin',(-0.03,-0.039,0.175));
#952=CARTESIAN_POINT('',(-0.03,-0.039,0.1665692193817));
#953=CARTESIAN_POINT('Origin',(-0.03,-0.061,0.175));
#954=CARTESIAN_POINT('Origin',(0.395,-0.3550272601106,0.175));
#955=CARTESIAN_POINT('Origin',(0.375,-0.0875,0.08));
#956=CARTESIAN_POINT('',(0.647,-0.0875,0.09));
#957=CARTESIAN_POINT('Origin',(0.647,-0.0875,0.08));
#958=CARTESIAN_POINT('',(0.375,-0.0875,0.09));
#959=CARTESIAN_POINT('Origin',(0.647,0.,0.));
#960=CARTESIAN_POINT('Origin',(0.647,0.,0.));
#961=CARTESIAN_POINT('',(0.647,-0.1875,0.09));
#962=CARTESIAN_POINT('Origin',(0.647,-0.1875,0.08));
#963=CARTESIAN_POINT('Origin',(0.647,0.,0.));
#964=CARTESIAN_POINT('',(0.647,-0.2875,0.09));
#965=CARTESIAN_POINT('Origin',(0.647,-0.2875,0.08));
#966=CARTESIAN_POINT('Origin',(0.375,-0.1875,0.08));
#967=CARTESIAN_POINT('',(0.375,-0.1875,0.09));
#968=CARTESIAN_POINT('Origin',(0.375,-0.2875,0.08));
#969=CARTESIAN_POINT('',(0.375,-0.2875,0.09));
#970=UNCERTAINTY_MEASURE_WITH_UNIT(LENGTH_MEASURE(0.000393700787401575),
#975,'DISTANCE_ACCURACY_VALUE',
'Maximum model space distance between geometric entities at asserted c
onnectivities');
#971=UNCERTAINTY_MEASURE_WITH_UNIT(LENGTH_MEASURE(0.000393700787401575),
#975,'DISTANCE_ACCURACY_VALUE',
'Maximum model space distance between geometric entities at asserted c
onnectivities');
#972=(
GEOMETRIC_REPRESENTATION_CONTEXT(3)
GLOBAL_UNCERTAINTY_ASSIGNED_CONTEXT((#970))
GLOBAL_UNIT_ASSIGNED_CONTEXT((#975,#979,#980))
REPRESENTATION_CONTEXT('','3D')
);
#973=(
GEOMETRIC_REPRESENTATION_CONTEXT(3)
GLOBAL_UNCERTAINTY_ASSIGNED_CONTEXT((#971))
GLOBAL_UNIT_ASSIGNED_CONTEXT((#975,#979,#980))
REPRESENTATION_CONTEXT('','3D')
);
#974=DIMENSIONAL_EXPONENTS(1.,0.,0.,0.,0.,0.,0.);
#975=(
CONVERSION_BASED_UNIT('inch',#978)
LENGTH_UNIT()
NAMED_UNIT(#974)
);
#976=(
LENGTH_UNIT()
NAMED_UNIT(*)
SI_UNIT(.MILLI.,.METRE.)
);
#977=(
LENGTH_UNIT()
NAMED_UNIT(*)
SI_UNIT($,.METRE.)
);
#978=LENGTH_MEASURE_WITH_UNIT(LENGTH_MEASURE(25.4),#976);
#979=(
NAMED_UNIT(*)
PLANE_ANGLE_UNIT()
SI_UNIT($,.RADIAN.)
);
#980=(
NAMED_UNIT(*)
SI_UNIT($,.STERADIAN.)
SOLID_ANGLE_UNIT()
);
#981=SHAPE_DEFINITION_REPRESENTATION(#982,#983);
#982=PRODUCT_DEFINITION_SHAPE('',$,#985);
#983=SHAPE_REPRESENTATION('',(#606),#972);
#984=PRODUCT_DEFINITION_CONTEXT('part definition',#989,'design');
#985=PRODUCT_DEFINITION('pv36w','pv36w v2',#986,#984);
#986=PRODUCT_DEFINITION_FORMATION('',$,#991);
#987=PRODUCT_RELATED_PRODUCT_CATEGORY('pv36w v2','pv36w v2',(#991));
#988=APPLICATION_PROTOCOL_DEFINITION('international standard',
'automotive_design',2009,#989);
#989=APPLICATION_CONTEXT(
'Core Data for Automotive Mechanical Design Process');
#990=PRODUCT_CONTEXT('part definition',#989,'mechanical');
#991=PRODUCT('pv36w','pv36w v2',$,(#990));
#992=PRESENTATION_STYLE_ASSIGNMENT((#996));
#993=PRESENTATION_STYLE_ASSIGNMENT((#997));
#994=PRESENTATION_STYLE_ASSIGNMENT((#998));
#995=PRESENTATION_STYLE_ASSIGNMENT((#999));
#996=SURFACE_STYLE_USAGE(.BOTH.,#1000);
#997=SURFACE_STYLE_USAGE(.BOTH.,#1001);
#998=SURFACE_STYLE_USAGE(.BOTH.,#1002);
#999=SURFACE_STYLE_USAGE(.BOTH.,#1003);
#1000=SURFACE_SIDE_STYLE('',(#1004));
#1001=SURFACE_SIDE_STYLE('',(#1005));
#1002=SURFACE_SIDE_STYLE('',(#1006));
#1003=SURFACE_SIDE_STYLE('',(#1007));
#1004=SURFACE_STYLE_FILL_AREA(#1008);
#1005=SURFACE_STYLE_FILL_AREA(#1009);
#1006=SURFACE_STYLE_FILL_AREA(#1010);
#1007=SURFACE_STYLE_FILL_AREA(#1011);
#1008=FILL_AREA_STYLE('Steel - Satin',(#1012));
#1009=FILL_AREA_STYLE('ABS (Blue)',(#1013));
#1010=FILL_AREA_STYLE('Brass - Matte',(#1014));
#1011=FILL_AREA_STYLE('Lead - Satin',(#1015));
#1012=FILL_AREA_STYLE_COLOUR('Steel - Satin',#1016);
#1013=FILL_AREA_STYLE_COLOUR('ABS (Blue)',#1017);
#1014=FILL_AREA_STYLE_COLOUR('Brass - Matte',#1018);
#1015=FILL_AREA_STYLE_COLOUR('Lead - Satin',#1019);
#1016=COLOUR_RGB('Steel - Satin',0.627450980392157,0.627450980392157,0.627450980392157);
#1017=COLOUR_RGB('ABS (Blue)',0.145098039215686,0.486274509803922,1.);
#1018=COLOUR_RGB('Brass - Matte',0.952941176470588,0.796078431372549,0.486274509803922);
#1019=COLOUR_RGB('Lead - Satin',0.815686274509804,0.815686274509804,0.815686274509804);
ENDSEC;
END-ISO-10303-21;
