(module Fuseholder_Cylinder-5x20mm_Littlefuse_0PTF0078P_Horizontal_Open (layer F.Cu) (tedit 5F9643B2)
  (descr "Littlefuse fuseholder for 5x20mm cylindrical fuses")
  (tags "fuseholder fuse")
  (fp_text reference REF** (at -2.1717 -2.65176) (layer F.SilkS)
    (effects (font (size 1 1) (thickness 0.15)))
  )
  (fp_text value Fuseholder_Cylinder-5x20mm_Littlefuse_0PTF0078P_Horizontal_Open (at 0.21082 25.64892) (layer F.Fab)
    (effects (font (size 1 1) (thickness 0.15)))
  )
  (fp_line (start 4.6 23.7) (end 1.3 23.7) (layer F.SilkS) (width 0.12))
  (fp_line (start -4.599999 23.700001) (end -1.299999 23.700001) (layer F.SilkS) (width 0.12))
  (fp_line (start -4.599999 -1.1) (end -1.299999 -1.1) (layer F.SilkS) (width 0.12))
  (fp_line (start 4.699999 -0.8) (end 4.7 23.4) (layer F.Fab) (width 0.1))
  (fp_line (start 4.6 23.5) (end -4.599999 23.5) (layer F.Fab) (width 0.1))
  (fp_line (start -4.699999 23.4) (end -4.699999 -0.8) (layer F.Fab) (width 0.1))
  (fp_line (start -4.599999 -0.9) (end 4.6 -0.9) (layer F.Fab) (width 0.1))
  (fp_line (start -4.9 23.4) (end -4.899999 -0.8) (layer F.SilkS) (width 0.12))
  (fp_line (start 1.3 -1.1) (end 4.6 -1.1) (layer F.SilkS) (width 0.12))
  (fp_line (start 4.9 -0.8) (end 4.9 23.4) (layer F.SilkS) (width 0.12))
  (fp_line (start 5.2 -1.4) (end -5.2 -1.4) (layer F.CrtYd) (width 0.05))
  (fp_line (start -5.2 -1.4) (end -5.2 24) (layer F.CrtYd) (width 0.05))
  (fp_line (start -5.2 24) (end 5.2 24) (layer F.CrtYd) (width 0.05))
  (fp_line (start 5.2 24) (end 5.2 -1.4) (layer F.CrtYd) (width 0.05))
  (fp_text user %R (at -0.0254 11.6586) (layer F.Fab)
    (effects (font (size 1 1) (thickness 0.15)))
  )
  (fp_arc (start 4.6 23.4) (end 4.6 23.5) (angle -90) (layer F.Fab) (width 0.1))
  (fp_arc (start -4.599999 23.4) (end -4.699999 23.4) (angle -90) (layer F.Fab) (width 0.1))
  (fp_arc (start -4.599999 -0.8) (end -4.599999 -0.9) (angle -90) (layer F.Fab) (width 0.1))
  (fp_arc (start 4.6 -0.8) (end 4.7 -0.8) (angle -90) (layer F.Fab) (width 0.1))
  (fp_arc (start -4.599999 23.4) (end -4.9 23.4) (angle -90) (layer F.SilkS) (width 0.12))
  (fp_arc (start -4.599999 -0.8) (end -4.599999 -1.1) (angle -90) (layer F.SilkS) (width 0.12))
  (fp_arc (start 4.6 -0.8) (end 4.9 -0.8) (angle -90) (layer F.SilkS) (width 0.12))
  (fp_arc (start 4.6 23.4) (end 4.6 23.7) (angle -90) (layer F.SilkS) (width 0.12))
  (pad 1 thru_hole circle (at 0 0) (size 3 3) (drill 1.5) (layers *.Cu *.Mask))
  (pad 2 thru_hole circle (at 0 22.6) (size 3 3) (drill 1.5) (layers *.Cu *.Mask))
  (model ${IREX_3DMODEL_DIR}/irex_Fuse.3dshapes/Fuseholder_Cylinder-5x20mm_Littlefuse_0PTF0078P_Horizontal_Open.step
    (at (xyz 0 0 0))
    (scale (xyz 1 1 1))
    (rotate (xyz 0 0 0))
  )
)
