(footprint "SW_Cherry_MX_ISOEnter_Plate" (version 20211014) (generator pcbnew)
  (layer "F.Cu")
  (tedit 5A02FE24)
  (descr "Cherry MX keyswitch, ISO Enter, plate mount, http://cherryamericas.com/wp-content/uploads/2014/12/mx_cat.pdf")
  (tags "Cherry MX keyswitch ISO enter plate")
  (attr through_hole)
  (fp_text reference "REF**" (at -2.54 -2.794) (layer "F.SilkS")
    (effects (font (size 1 1) (thickness 0.15)))
    (tstamp 2da591a3-6e1f-401e-b546-57e02f378ea9)
  )
  (fp_text value "SW_Cherry_MX_ISOEnter_Plate" (at -2.286 13.208) (layer "F.Fab")
    (effects (font (size 1 1) (thickness 0.15)))
    (tstamp a0300586-99e5-4491-8eb2-41e7d745bf10)
  )
  (fp_text user "${REFERENCE}" (at -2.54 -2.794) (layer "F.Fab")
    (effects (font (size 1 1) (thickness 0.15)))
    (tstamp 4f5c21a3-4c79-48b4-ab90-c65789597287)
  )
  (fp_line (start 4.445 -1.905) (end 4.445 12.065) (layer "F.SilkS") (width 0.12) (tstamp 7053bb1d-572b-4fbf-9ad1-7794125392b6))
  (fp_line (start -9.525 -1.905) (end 4.445 -1.905) (layer "F.SilkS") (width 0.12) (tstamp 90a85695-0dd7-4d5f-b71f-636e5dfaf486))
  (fp_line (start -9.525 12.065) (end -9.525 -1.905) (layer "F.SilkS") (width 0.12) (tstamp c46661ed-a775-494b-a22c-e989957c7bad))
  (fp_line (start 4.445 12.065) (end -9.525 12.065) (layer "F.SilkS") (width 0.12) (tstamp db2f29b1-aa1c-424d-b477-bc1b42e47381))
  (fp_line (start -14.44625 24.13) (end -14.44625 5.08) (layer "Dwgs.User") (width 0.15) (tstamp 23adc280-7bed-4b43-8a2b-bde543d4ad17))
  (fp_line (start 9.36625 24.13) (end -14.44625 24.13) (layer "Dwgs.User") (width 0.15) (tstamp 2a145e4d-85aa-4794-887b-e1e6e5da63cb))
  (fp_line (start 9.36625 -13.97) (end 9.36625 24.13) (layer "Dwgs.User") (width 0.15) (tstamp 78d8bd80-466a-436c-a59f-bcd2d0c0227a))
  (fp_line (start -19.20875 -13.97) (end 9.36625 -13.97) (layer "Dwgs.User") (width 0.15) (tstamp 9e86cb8e-1a22-46de-862e-4afe62210ba6))
  (fp_line (start -19.20875 5.08) (end -19.20875 -13.97) (layer "Dwgs.User") (width 0.15) (tstamp b8d0cfe8-5ded-440a-9c37-0547de2a1de1))
  (fp_line (start -14.44625 5.08) (end -19.20875 5.08) (layer "Dwgs.User") (width 0.15) (tstamp e6e8adc0-cc91-4304-bc09-9c397052e703))
  (fp_line (start 4.06 11.68) (end -9.14 11.68) (layer "F.CrtYd") (width 0.05) (tstamp 1550eec9-61b8-4a78-9169-ce138015a6a4))
  (fp_line (start 4.06 -1.52) (end 4.06 11.68) (layer "F.CrtYd") (width 0.05) (tstamp 3b6c0748-74f2-434d-9dab-9cb69878bbfb))
  (fp_line (start -9.14 11.68) (end -9.14 -1.52) (layer "F.CrtYd") (width 0.05) (tstamp 5bdd5001-6963-4df7-adb7-2ce61373b008))
  (fp_line (start -9.14 -1.52) (end 4.06 -1.52) (layer "F.CrtYd") (width 0.05) (tstamp 7db57f0e-c003-4a7f-a15f-ca598dae4432))
  (fp_line (start -8.89 11.43) (end -8.89 -1.27) (layer "F.Fab") (width 0.1) (tstamp 7e6f1c93-04e3-4772-90bf-62a93cb7a441))
  (fp_line (start -8.89 -1.27) (end 3.81 -1.27) (layer "F.Fab") (width 0.1) (tstamp f15b7890-7890-4f03-b09f-f68ac18a7833))
  (fp_line (start 3.81 -1.27) (end 3.81 11.43) (layer "F.Fab") (width 0.1) (tstamp f1ec6152-cb9f-4130-89f1-9c8268da3e53))
  (fp_line (start 3.81 11.43) (end -8.89 11.43) (layer "F.Fab") (width 0.1) (tstamp f23bb9e1-5e05-4bbf-b127-ffe25089156d))
  (pad "" np_thru_hole circle (at -2.54 5.08) (size 4 4) (drill 4) (layers *.Cu *.Mask) (tstamp f338bb28-7c39-4673-9248-9da810189c53))
  (pad "1" thru_hole circle (at 0 0) (size 2.2 2.2) (drill 1.5) (layers *.Cu *.Mask) (tstamp 120d17bb-47fa-445f-85cd-d8c31512a4d0))
  (pad "2" thru_hole circle (at -6.35 2.54) (size 2.2 2.2) (drill 1.5) (layers *.Cu *.Mask) (tstamp bb6ad7de-6ba1-4053-bd35-53637a6b77c9))
  (model "${IREX_3DMODEL_DIR}/irex_Button_Switch_Keyboard.3dshapes/SW_Cherry_MX.step"
    (offset (xyz 0 0 0))
    (scale (xyz 1 1 1))
    (rotate (xyz 0 0 0))
  )
)
