(footprint "SW_Cherry_MX_2.00u_PCB" (version 20211014) (generator pcbnew)
  (layer "F.Cu")
  (tedit 5A02FE24)
  (descr "Cherry MX keyswitch, 2.00u, PCB mount, http://cherryamericas.com/wp-content/uploads/2014/12/mx_cat.pdf")
  (tags "Cherry MX keyswitch 2.00u PCB")
  (attr through_hole)
  (fp_text reference "REF**" (at -2.54 -2.794) (layer "F.SilkS")
    (effects (font (size 1 1) (thickness 0.15)))
    (tstamp 23ea568f-49ba-46de-a1b4-6b49a8c87e98)
  )
  (fp_text value "SW_Cherry_MX_2.00u_PCB" (at -2.54 12.954) (layer "F.Fab")
    (effects (font (size 1 1) (thickness 0.15)))
    (tstamp eb86bf61-b75b-4560-8522-7875ed0dbc35)
  )
  (fp_text user "${REFERENCE}" (at -2.54 -2.794) (layer "F.Fab")
    (effects (font (size 1 1) (thickness 0.15)))
    (tstamp 77142229-b825-44a9-8ee1-1a9eb237340e)
  )
  (fp_line (start -9.525 12.065) (end -9.525 -1.905) (layer "F.SilkS") (width 0.12) (tstamp 0a5e7135-91e5-490f-9cd6-6c952660dae8))
  (fp_line (start 4.445 12.065) (end -9.525 12.065) (layer "F.SilkS") (width 0.12) (tstamp 2567e369-0760-4dd2-b05f-910315719521))
  (fp_line (start -9.525 -1.905) (end 4.445 -1.905) (layer "F.SilkS") (width 0.12) (tstamp 46306a01-0cd0-4169-93be-23f06bc0ec3e))
  (fp_line (start 4.445 -1.905) (end 4.445 12.065) (layer "F.SilkS") (width 0.12) (tstamp 7c42ec75-0fa8-4ef0-a6a3-b3777a4f3bdf))
  (fp_line (start 16.51 -4.445) (end 16.51 14.605) (layer "Dwgs.User") (width 0.15) (tstamp 051dc378-e92b-48a5-87e6-25fdf436851f))
  (fp_line (start 16.51 14.605) (end -21.59 14.605) (layer "Dwgs.User") (width 0.15) (tstamp 5126f6f0-5f9a-4b93-97a0-09239d66586d))
  (fp_line (start -21.59 14.605) (end -21.59 -4.445) (layer "Dwgs.User") (width 0.15) (tstamp 5ffb7552-b486-4e9b-b04c-d3c56e8b8e0d))
  (fp_line (start -21.59 -4.445) (end 16.51 -4.445) (layer "Dwgs.User") (width 0.15) (tstamp ab4a8777-21ae-4a20-b57c-18ff0f83fc92))
  (fp_line (start -9.14 -1.52) (end 4.06 -1.52) (layer "F.CrtYd") (width 0.05) (tstamp 517c529f-7e9a-4381-b716-c3b207c12810))
  (fp_line (start -9.14 11.68) (end -9.14 -1.52) (layer "F.CrtYd") (width 0.05) (tstamp 67029026-5d85-4f54-9d8d-ca0096144366))
  (fp_line (start 4.06 11.68) (end -9.14 11.68) (layer "F.CrtYd") (width 0.05) (tstamp 71e1a595-9cf3-4047-8ef3-5e8c37ca3a8e))
  (fp_line (start 4.06 -1.52) (end 4.06 11.68) (layer "F.CrtYd") (width 0.05) (tstamp b700575f-c677-4e64-81ca-d0f423d78591))
  (fp_line (start -8.89 11.43) (end -8.89 -1.27) (layer "F.Fab") (width 0.1) (tstamp 22bf3bba-63e2-42b1-8e86-bc41cd140ed5))
  (fp_line (start 3.81 11.43) (end -8.89 11.43) (layer "F.Fab") (width 0.1) (tstamp 5eec16eb-ebae-4eb9-88ad-13b792a5cca0))
  (fp_line (start 3.81 -1.27) (end 3.81 11.43) (layer "F.Fab") (width 0.1) (tstamp acdbfb99-0f0a-4421-92aa-f7a5a5297650))
  (fp_line (start -8.89 -1.27) (end 3.81 -1.27) (layer "F.Fab") (width 0.1) (tstamp d6ce926a-24e6-4eec-8186-9ccec904c278))
  (pad "" np_thru_hole circle (at -14.44 13.32) (size 4 4) (drill 4) (layers *.Cu *.Mask) (tstamp 116a009b-b879-473c-ae93-5bc6e018a43a))
  (pad "" np_thru_hole circle (at -2.54 5.08) (size 4 4) (drill 4) (layers *.Cu *.Mask) (tstamp 1bf57bee-75e4-4e71-a02e-5d98812a145b))
  (pad "" np_thru_hole circle (at 9.36 -1.92) (size 3.05 3.05) (drill 3.05) (layers *.Cu *.Mask) (tstamp 26c5cfb0-ac5a-4695-a7d4-58ed61838ea8))
  (pad "" np_thru_hole circle (at -14.44 -1.92) (size 3.05 3.05) (drill 3.05) (layers *.Cu *.Mask) (tstamp 399220e4-ad2b-478c-a8f5-33c32441ea17))
  (pad "" np_thru_hole circle (at -7.62 5.08) (size 1.7 1.7) (drill 1.7) (layers *.Cu *.Mask) (tstamp abce1f8a-c899-4c54-bc0a-d151dd2ea379))
  (pad "" np_thru_hole circle (at 2.54 5.08) (size 1.7 1.7) (drill 1.7) (layers *.Cu *.Mask) (tstamp cb6d79fe-5b33-45cc-9e17-9be145a70010))
  (pad "" np_thru_hole circle (at 9.36 13.32) (size 4 4) (drill 4) (layers *.Cu *.Mask) (tstamp f270507f-9dcd-4742-934d-5580bdca6253))
  (pad "1" thru_hole circle (at 0 0) (size 2.2 2.2) (drill 1.5) (layers *.Cu *.Mask) (tstamp 9795778e-5aa0-4c76-8a54-0e64c17a04f9))
  (pad "2" thru_hole circle (at -6.35 2.54) (size 2.2 2.2) (drill 1.5) (layers *.Cu *.Mask) (tstamp d92767e1-9563-4fc4-a10b-96920d8c224a))
  (model "${IREX_3DMODEL_DIR}/irex_Button_Switch_Keyboard.3dshapes/SW_Cherry_MX.step"
    (offset (xyz 0 0 0))
    (scale (xyz 1 1 1))
    (rotate (xyz 0 0 0))
  )
  (model "${IREX_3DMODEL_DIR}/irex_Button_Switch_Keyboard.3dshapes/SW_Cherry_MX_2.00u_R1.step" hide
    (offset (xyz 0 0 0))
    (scale (xyz 1 1 1))
    (rotate (xyz 0 0 0))
  )
  (model "${IREX_3DMODEL_DIR}/irex_Button_Switch_Keyboard.3dshapes/SW_Cherry_MX_2.00u_R2.step" hide
    (offset (xyz 0 0 0))
    (scale (xyz 1 1 1))
    (rotate (xyz 0 0 0))
  )
  (model "${IREX_3DMODEL_DIR}/irex_Button_Switch_Keyboard.3dshapes/SW_Cherry_MX_2.00u_R3.step" hide
    (offset (xyz 0 0 0))
    (scale (xyz 1 1 1))
    (rotate (xyz 0 0 0))
  )
  (model "${IREX_3DMODEL_DIR}/irex_Button_Switch_Keyboard.3dshapes/SW_Cherry_MX_2.00u_R4.step" hide
    (offset (xyz 0 0 0))
    (scale (xyz 1 1 1))
    (rotate (xyz 0 0 0))
  )
)
