(footprint "SW_Cherry_MX_2.25u_Plate" (version 20211014) (generator pcbnew)
  (layer "F.Cu")
  (tedit 5A02FE24)
  (descr "Cherry MX keyswitch, 2.25u, plate mount, http://cherryamericas.com/wp-content/uploads/2014/12/mx_cat.pdf")
  (tags "Cherry MX keyswitch 2.25u plate")
  (attr through_hole)
  (fp_text reference "REF**" (at -2.54 -2.794) (layer "F.SilkS")
    (effects (font (size 1 1) (thickness 0.15)))
    (tstamp bb40f461-5122-44ad-9bec-d49bb738209a)
  )
  (fp_text value "SW_Cherry_MX_2.25u_Plate" (at -2.54 12.954) (layer "F.Fab")
    (effects (font (size 1 1) (thickness 0.15)))
    (tstamp d7f2cdfa-7124-419d-8a99-8c68770bfa20)
  )
  (fp_text user "${REFERENCE}" (at -2.54 -2.794) (layer "F.Fab")
    (effects (font (size 1 1) (thickness 0.15)))
    (tstamp 98661df6-13d9-4b66-bc2b-d647ffc947ca)
  )
  (fp_line (start -9.525 -1.905) (end 4.445 -1.905) (layer "F.SilkS") (width 0.12) (tstamp 04f9c410-7636-401d-9ebb-c35ae6382bdf))
  (fp_line (start 4.445 12.065) (end -9.525 12.065) (layer "F.SilkS") (width 0.12) (tstamp 0a9bace8-50f1-4226-8bc9-eb234a341e9a))
  (fp_line (start -9.525 12.065) (end -9.525 -1.905) (layer "F.SilkS") (width 0.12) (tstamp 912045d1-f4a7-41cf-a4f2-c3a419404778))
  (fp_line (start 4.445 -1.905) (end 4.445 12.065) (layer "F.SilkS") (width 0.12) (tstamp c41fbe1a-7ccb-4174-b16d-ff40ab831d4d))
  (fp_line (start -23.97125 14.605) (end -23.97125 -4.445) (layer "Dwgs.User") (width 0.15) (tstamp 397ac91d-280a-4afb-8b64-d215e59a65dd))
  (fp_line (start -23.97125 -4.445) (end 18.89125 -4.445) (layer "Dwgs.User") (width 0.15) (tstamp 44ef94bf-087e-441b-8d70-e8e978a5741f))
  (fp_line (start 18.89125 -4.445) (end 18.89125 14.605) (layer "Dwgs.User") (width 0.15) (tstamp 7517480a-e7d9-44aa-867b-bbac5926c927))
  (fp_line (start 18.89125 14.605) (end -23.97125 14.605) (layer "Dwgs.User") (width 0.15) (tstamp 955fd4ee-c484-4e5c-9520-e1f0bed04977))
  (fp_line (start 4.06 11.68) (end -9.14 11.68) (layer "F.CrtYd") (width 0.05) (tstamp 3e6eed0e-55d3-494a-8d3d-99c26e038df5))
  (fp_line (start -9.14 11.68) (end -9.14 -1.52) (layer "F.CrtYd") (width 0.05) (tstamp 4fe9ef84-aa8f-43d3-a6eb-10f29faf90db))
  (fp_line (start -9.14 -1.52) (end 4.06 -1.52) (layer "F.CrtYd") (width 0.05) (tstamp aa35cfa6-0ad3-4a6d-848b-23e369be59f8))
  (fp_line (start 4.06 -1.52) (end 4.06 11.68) (layer "F.CrtYd") (width 0.05) (tstamp e640d938-1a6b-4c17-b9ad-fa2f646decb7))
  (fp_line (start -8.89 -1.27) (end 3.81 -1.27) (layer "F.Fab") (width 0.1) (tstamp 03968e2d-b39a-4c22-9e26-b82ba5506666))
  (fp_line (start 3.81 -1.27) (end 3.81 11.43) (layer "F.Fab") (width 0.1) (tstamp 045d4b47-42b5-420b-a378-041af25111a7))
  (fp_line (start 3.81 11.43) (end -8.89 11.43) (layer "F.Fab") (width 0.1) (tstamp c137e13c-062c-49ed-9a27-1d09301fa082))
  (fp_line (start -8.89 11.43) (end -8.89 -1.27) (layer "F.Fab") (width 0.1) (tstamp ff541bea-daa9-47d8-8a4a-83c86d01fb6f))
  (pad "" np_thru_hole circle (at -2.54 5.08) (size 4 4) (drill 4) (layers *.Cu *.Mask) (tstamp 69578399-0bfe-4bee-834b-3e9f2e1a29f9))
  (pad "1" thru_hole circle (at 0 0) (size 2.2 2.2) (drill 1.5) (layers *.Cu *.Mask) (tstamp cfde914e-b3f7-490a-939b-23df6473d458))
  (pad "2" thru_hole circle (at -6.35 2.54) (size 2.2 2.2) (drill 1.5) (layers *.Cu *.Mask) (tstamp e977014b-4de5-4ed2-a432-4741f5740109))
  (model "${IREX_3DMODEL_DIR}/irex_Button_Switch_Keyboard.3dshapes/SW_Cherry_MX.step"
    (offset (xyz 0 0 0))
    (scale (xyz 1 1 1))
    (rotate (xyz 0 0 0))
  )
  (model "${IREX_3DMODEL_DIR}/irex_Button_Switch_Keyboard.3dshapes/SW_Cherry_MX_2.25u_R1.step" hide
    (offset (xyz 0 0 0))
    (scale (xyz 1 1 1))
    (rotate (xyz 0 0 0))
  )
  (model "${IREX_3DMODEL_DIR}/irex_Button_Switch_Keyboard.3dshapes/SW_Cherry_MX_2.25u_R2.step" hide
    (offset (xyz 0 0 0))
    (scale (xyz 1 1 1))
    (rotate (xyz 0 0 0))
  )
  (model "${IREX_3DMODEL_DIR}/irex_Button_Switch_Keyboard.3dshapes/SW_Cherry_MX_2.25u_R3.step" hide
    (offset (xyz 0 0 0))
    (scale (xyz 1 1 1))
    (rotate (xyz 0 0 0))
  )
  (model "${IREX_3DMODEL_DIR}/irex_Button_Switch_Keyboard.3dshapes/SW_Cherry_MX_2.25u_R4.step" hide
    (offset (xyz 0 0 0))
    (scale (xyz 1 1 1))
    (rotate (xyz 0 0 0))
  )
)
