(footprint "SW_Cherry_MX_2.75u_Plate" (version 20211014) (generator pcbnew)
  (layer "F.Cu")
  (tedit 5A02FE24)
  (descr "Cherry MX keyswitch, 2.75u, plate mount, http://cherryamericas.com/wp-content/uploads/2014/12/mx_cat.pdf")
  (tags "Cherry MX keyswitch 2.75u plate")
  (attr through_hole)
  (fp_text reference "REF**" (at -2.54 -2.794) (layer "F.SilkS")
    (effects (font (size 1 1) (thickness 0.15)))
    (tstamp 91249119-ee1e-406f-9cfe-53a004d5b9b9)
  )
  (fp_text value "SW_Cherry_MX_2.75u_Plate" (at -2.54 12.954) (layer "F.Fab")
    (effects (font (size 1 1) (thickness 0.15)))
    (tstamp 56a3d424-8a49-43ca-b9f9-e937d45ad4a6)
  )
  (fp_text user "${REFERENCE}" (at -2.54 -2.794) (layer "F.Fab")
    (effects (font (size 1 1) (thickness 0.15)))
    (tstamp 383302e7-8e30-4a54-ab78-0fdb83cad079)
  )
  (fp_line (start -9.525 -1.905) (end 4.445 -1.905) (layer "F.SilkS") (width 0.12) (tstamp 177dcb94-8ee7-444f-837d-cfe3fe60eefb))
  (fp_line (start -9.525 12.065) (end -9.525 -1.905) (layer "F.SilkS") (width 0.12) (tstamp 50191de3-b619-4c01-bf19-b70cdf6637df))
  (fp_line (start 4.445 -1.905) (end 4.445 12.065) (layer "F.SilkS") (width 0.12) (tstamp 7eb20bd8-b3cd-4557-b4c4-923fe1e1292a))
  (fp_line (start 4.445 12.065) (end -9.525 12.065) (layer "F.SilkS") (width 0.12) (tstamp bc6e585d-df30-4f43-a97f-08822b7c14e4))
  (fp_line (start 23.65375 -4.445) (end 23.65375 14.605) (layer "Dwgs.User") (width 0.15) (tstamp 149cc2e0-5c2a-4c00-ada2-f7350c76077b))
  (fp_line (start -28.73375 -4.445) (end 23.65375 -4.445) (layer "Dwgs.User") (width 0.15) (tstamp 30f76d40-f582-43ea-b6b3-d6fbd4af4f75))
  (fp_line (start -28.73375 14.605) (end -28.73375 -4.445) (layer "Dwgs.User") (width 0.15) (tstamp 4a9c4d83-8968-4152-83f7-94a8a8acf8ab))
  (fp_line (start 23.65375 14.605) (end -28.73375 14.605) (layer "Dwgs.User") (width 0.15) (tstamp 58672921-ff29-414d-94a6-22e39532bb54))
  (fp_line (start 4.06 -1.52) (end 4.06 11.68) (layer "F.CrtYd") (width 0.05) (tstamp 5954b63e-62c3-4cfa-a8e2-b4533324306f))
  (fp_line (start 4.06 11.68) (end -9.14 11.68) (layer "F.CrtYd") (width 0.05) (tstamp 69fbc66f-128f-4141-9a6d-01da30623e7b))
  (fp_line (start -9.14 11.68) (end -9.14 -1.52) (layer "F.CrtYd") (width 0.05) (tstamp 8fb60ad1-d672-4b67-abcf-d16c94e2be43))
  (fp_line (start -9.14 -1.52) (end 4.06 -1.52) (layer "F.CrtYd") (width 0.05) (tstamp ae1e9204-3e2f-4547-97d3-3567b57263d9))
  (fp_line (start 3.81 -1.27) (end 3.81 11.43) (layer "F.Fab") (width 0.1) (tstamp 05fdb6ed-9080-4cf1-bd74-6048a526b0df))
  (fp_line (start -8.89 -1.27) (end 3.81 -1.27) (layer "F.Fab") (width 0.1) (tstamp 20b3822b-614a-40f5-920b-cdbab9d6362d))
  (fp_line (start 3.81 11.43) (end -8.89 11.43) (layer "F.Fab") (width 0.1) (tstamp 797672c3-78ca-4eca-a653-bda4027d37ad))
  (fp_line (start -8.89 11.43) (end -8.89 -1.27) (layer "F.Fab") (width 0.1) (tstamp a046c9e4-3e90-4904-841b-3ad7204e7445))
  (pad "" np_thru_hole circle (at -2.54 5.08) (size 4 4) (drill 4) (layers *.Cu *.Mask) (tstamp 2ce98ca2-ffce-4a49-8976-5d7cc3bc4ac1))
  (pad "1" thru_hole circle (at 0 0) (size 2.2 2.2) (drill 1.5) (layers *.Cu *.Mask) (tstamp 1d45d54e-7af0-4872-95ed-48833c4828a3))
  (pad "2" thru_hole circle (at -6.35 2.54) (size 2.2 2.2) (drill 1.5) (layers *.Cu *.Mask) (tstamp 7cfceaa8-72de-418e-8dbd-4db54299a1f2))
  (model "${IREX_3DMODEL_DIR}/irex_Button_Switch_Keyboard.3dshapes/SW_Cherry_MX.step"
    (offset (xyz 0 0 0))
    (scale (xyz 1 1 1))
    (rotate (xyz 0 0 0))
  )
  (model "${IREX_3DMODEL_DIR}/irex_Button_Switch_Keyboard.3dshapes/SW_Cherry_MX_2.75u_R1.step" hide
    (offset (xyz 0 0 0))
    (scale (xyz 1 1 1))
    (rotate (xyz 0 0 0))
  )
  (model "${IREX_3DMODEL_DIR}/irex_Button_Switch_Keyboard.3dshapes/SW_Cherry_MX_2.75u_R2.step" hide
    (offset (xyz 0 0 0))
    (scale (xyz 1 1 1))
    (rotate (xyz 0 0 0))
  )
  (model "${IREX_3DMODEL_DIR}/irex_Button_Switch_Keyboard.3dshapes/SW_Cherry_MX_2.75u_R3.step" hide
    (offset (xyz 0 0 0))
    (scale (xyz 1 1 1))
    (rotate (xyz 0 0 0))
  )
  (model "${IREX_3DMODEL_DIR}/irex_Button_Switch_Keyboard.3dshapes/SW_Cherry_MX_2.75u_R4.step" hide
    (offset (xyz 0 0 0))
    (scale (xyz 1 1 1))
    (rotate (xyz 0 0 0))
  )
)
