(footprint "SW_Cherry_MX_1.25u_Plate" (version 20211014) (generator pcbnew)
  (layer "F.Cu")
  (tedit 5A02FE24)
  (descr "Cherry MX keyswitch, 1.25u, plate mount, http://cherryamericas.com/wp-content/uploads/2014/12/mx_cat.pdf")
  (tags "Cherry MX keyswitch 1.25u plate")
  (attr through_hole)
  (fp_text reference "REF**" (at -2.54 -2.794) (layer "F.SilkS")
    (effects (font (size 1 1) (thickness 0.15)))
    (tstamp e64a447c-8ab1-4920-a2ee-50db32043c3c)
  )
  (fp_text value "SW_Cherry_MX_1.25u_Plate" (at -2.54 12.954) (layer "F.Fab")
    (effects (font (size 1 1) (thickness 0.15)))
    (tstamp cd8bfe48-613c-4adc-8292-d3270f8384d3)
  )
  (fp_text user "${REFERENCE}" (at -2.54 -2.794) (layer "F.Fab")
    (effects (font (size 1 1) (thickness 0.15)))
    (tstamp 9267f902-94d2-42e3-9a33-d899f9eb71ec)
  )
  (fp_line (start -9.525 12.065) (end -9.525 -1.905) (layer "F.SilkS") (width 0.12) (tstamp 4424fdbc-e142-4d61-8248-6eabf2cd99f8))
  (fp_line (start 4.445 -1.905) (end 4.445 12.065) (layer "F.SilkS") (width 0.12) (tstamp 44c9c9f2-f8a5-4a8f-afcc-f58e5ee8e4bd))
  (fp_line (start 4.445 12.065) (end -9.525 12.065) (layer "F.SilkS") (width 0.12) (tstamp 8319f677-36ef-4449-a9e9-2f32a7cd54e6))
  (fp_line (start -9.525 -1.905) (end 4.445 -1.905) (layer "F.SilkS") (width 0.12) (tstamp d5796778-9907-443d-acb6-e32fcd4e5e4d))
  (fp_line (start -14.44625 -4.445) (end 9.36625 -4.445) (layer "Dwgs.User") (width 0.15) (tstamp 37582cb1-6992-4307-995c-f8fb2472782b))
  (fp_line (start 9.36625 14.605) (end -14.44625 14.605) (layer "Dwgs.User") (width 0.15) (tstamp 3df661c5-2398-44e7-ac56-be6dc19731d6))
  (fp_line (start 9.36625 -4.445) (end 9.36625 14.605) (layer "Dwgs.User") (width 0.15) (tstamp 4fd18c5b-d0ef-4683-afc4-b77099c0e169))
  (fp_line (start -14.44625 14.605) (end -14.44625 -4.445) (layer "Dwgs.User") (width 0.15) (tstamp eaac1540-b5d6-4e0c-a466-3e2f29ffa086))
  (fp_line (start 4.06 11.68) (end -9.14 11.68) (layer "F.CrtYd") (width 0.05) (tstamp 58bb7f02-3c9b-41fa-93fc-562524c8568b))
  (fp_line (start -9.14 -1.52) (end 4.06 -1.52) (layer "F.CrtYd") (width 0.05) (tstamp bf80c38d-e167-467f-8858-93dcf8b56c3b))
  (fp_line (start 4.06 -1.52) (end 4.06 11.68) (layer "F.CrtYd") (width 0.05) (tstamp c0301b93-3798-4740-b387-f3090f1177ca))
  (fp_line (start -9.14 11.68) (end -9.14 -1.52) (layer "F.CrtYd") (width 0.05) (tstamp cc891e33-a06d-4582-abfe-0887fafb0db0))
  (fp_line (start -8.89 11.43) (end -8.89 -1.27) (layer "F.Fab") (width 0.1) (tstamp 2fe66b2e-978e-4e6c-b251-5253fa1dc1c2))
  (fp_line (start 3.81 -1.27) (end 3.81 11.43) (layer "F.Fab") (width 0.1) (tstamp 6b2043ce-226c-45c8-a14b-f34a6fd7c49d))
  (fp_line (start 3.81 11.43) (end -8.89 11.43) (layer "F.Fab") (width 0.1) (tstamp 8a532a5e-bef9-4902-a8e4-8351de1e5086))
  (fp_line (start -8.89 -1.27) (end 3.81 -1.27) (layer "F.Fab") (width 0.1) (tstamp ceef6dae-e021-4a79-a861-ccfda391a1cd))
  (pad "" np_thru_hole circle (at -2.54 5.08) (size 4 4) (drill 4) (layers *.Cu *.Mask) (tstamp 4dfcd94b-440e-45d8-ba61-e0e18e3022c5))
  (pad "1" thru_hole circle (at 0 0) (size 2.2 2.2) (drill 1.5) (layers *.Cu *.Mask) (tstamp ddc5c586-6cee-4d5b-aa58-f7c11d3db320))
  (pad "2" thru_hole circle (at -6.35 2.54) (size 2.2 2.2) (drill 1.5) (layers *.Cu *.Mask) (tstamp 3f327f3e-9c88-4ce8-98c5-a0eb1864f527))
  (model "${IREX_3DMODEL_DIR}/irex_Button_Switch_Keyboard.3dshapes/SW_Cherry_MX.step"
    (offset (xyz 0 0 0))
    (scale (xyz 1 1 1))
    (rotate (xyz 0 0 0))
  )
  (model "${IREX_3DMODEL_DIR}/irex_Button_Switch_Keyboard.3dshapes/SW_Cherry_MX_1.25u_R1.step" hide
    (offset (xyz 0 0 0))
    (scale (xyz 1 1 1))
    (rotate (xyz 0 0 0))
  )
  (model "${IREX_3DMODEL_DIR}/irex_Button_Switch_Keyboard.3dshapes/SW_Cherry_MX_1.25u_R2.step" hide
    (offset (xyz 0 0 0))
    (scale (xyz 1 1 1))
    (rotate (xyz 0 0 0))
  )
  (model "${IREX_3DMODEL_DIR}/irex_Button_Switch_Keyboard.3dshapes/SW_Cherry_MX_1.25u_R3.step" hide
    (offset (xyz 0 0 0))
    (scale (xyz 1 1 1))
    (rotate (xyz 0 0 0))
  )
  (model "${IREX_3DMODEL_DIR}/irex_Button_Switch_Keyboard.3dshapes/SW_Cherry_MX_1.25u_R4.step" hide
    (offset (xyz 0 0 0))
    (scale (xyz 1 1 1))
    (rotate (xyz 0 0 0))
  )
)
