(footprint "Logo_irex_10.0x11.1mm_Mask" (version 20221018) (generator pcbnew)
  (layer "F.Cu")
  (attr board_only exclude_from_pos_files exclude_from_bom)
  (fp_text reference "G***" (at -0.05 -6.79) (layer "F.SilkS") hide
      (effects (font (size 1.524 1.524) (thickness 0.3)))
    (tstamp 7b9f7232-aa06-4c5e-a0b4-0b32ba71e047)
  )
  (fp_text value "IREX_LOGO" (at 0.49 7.11) (layer "F.SilkS") hide
      (effects (font (size 1.524 1.524) (thickness 0.3)))
    (tstamp 50e2383f-563d-48ff-8d08-d4f3cdadfe57)
  )
  (fp_poly
    (pts
      (xy -2.714465 2.384016)
      (xy -2.659375 2.515465)
      (xy -2.583931 2.696613)
      (xy -2.57587 2.716018)
      (xy -2.281771 3.319083)
      (xy -1.932937 3.851079)
      (xy -1.538375 4.301271)
      (xy -1.107091 4.658924)
      (xy -0.785382 4.849869)
      (xy -0.464945 4.9964)
      (xy -0.167065 5.097258)
      (xy 0.139814 5.158224)
      (xy 0.487249 5.18508)
      (xy 0.906796 5.183608)
      (xy 1.016 5.179901)
      (xy 1.350412 5.162994)
      (xy 1.611789 5.13715)
      (xy 1.839962 5.095733)
      (xy 2.074761 5.032107)
      (xy 2.257777 4.973024)
      (xy 2.925927 4.697066)
      (xy 3.526765 4.336718)
      (xy 4.079417 3.880199)
      (xy 4.161775 3.80029)
      (xy 4.362805 3.605491)
      (xy 4.490039 3.493559)
      (xy 4.544342 3.465702)
      (xy 4.526574 3.52313)
      (xy 4.4376 3.66705)
      (xy 4.278282 3.898673)
      (xy 4.255265 3.931304)
      (xy 3.89764 4.340896)
      (xy 3.446457 4.693028)
      (xy 2.906901 4.984956)
      (xy 2.284156 5.213935)
      (xy 1.583408 5.377222)
      (xy 1.495777 5.392035)
      (xy 1.251512 5.420473)
      (xy 0.924351 5.44269)
      (xy 0.544145 5.458141)
      (xy 0.140744 5.466282)
      (xy -0.256001 5.46657)
      (xy -0.61624 5.458462)
      (xy -0.910122 5.441412)
      (xy -0.959556 5.436754)
      (xy -1.320854 5.394769)
      (xy -1.727504 5.339492)
      (xy -2.151232 5.275503)
      (xy -2.563764 5.207385)
      (xy -2.936826 5.13972)
      (xy -3.242144 5.077088)
      (xy -3.375664 5.045232)
      (xy -3.889222 4.884633)
      (xy -4.304726 4.695481)
      (xy -4.620042 4.480866)
      (xy -4.833036 4.243876)
      (xy -4.941574 3.987601)
      (xy -4.943523 3.715131)
      (xy -4.836748 3.429556)
      (xy -4.662155 3.182599)
      (xy -4.391243 2.940792)
      (xy -4.018282 2.725398)
      (xy -3.551971 2.54095)
      (xy -3.27151 2.457708)
      (xy -3.046035 2.398779)
      (xy -2.867254 2.354735)
      (xy -2.758994 2.331296)
      (xy -2.737765 2.329559)
      (xy -2.714465 2.384016)
    )

    (stroke (width 0.01) (type solid)) (fill solid) (layer "F.Mask") (tstamp c30f759b-051e-4376-ab5a-5e6040ef5b9c))
  (fp_poly
    (pts
      (xy 0.064802 -5.445337)
      (xy 0.567137 -5.271074)
      (xy 1.080892 -4.99511)
      (xy 1.601849 -4.619338)
      (xy 2.125788 -4.145654)
      (xy 2.648489 -3.575955)
      (xy 2.681986 -3.536047)
      (xy 2.859082 -3.321946)
      (xy 3.006579 -3.139797)
      (xy 3.111016 -3.006515)
      (xy 3.158927 -2.939017)
      (xy 3.160546 -2.934779)
      (xy 3.114917 -2.895147)
      (xy 3.003123 -2.836496)
      (xy 2.98826 -2.829811)
      (xy 2.851239 -2.73525)
      (xy 2.71027 -2.587542)
      (xy 2.663704 -2.523821)
      (xy 2.589885 -2.401076)
      (xy 2.544652 -2.283776)
      (xy 2.521171 -2.138554)
      (xy 2.512606 -1.932041)
      (xy 2.511777 -1.782122)
      (xy 2.515444 -1.525146)
      (xy 2.532568 -1.338833)
      (xy 2.572339 -1.181042)
      (xy 2.643944 -1.009627)
      (xy 2.709294 -0.876155)
      (xy 2.971507 -0.450943)
      (xy 3.28794 -0.102454)
      (xy 3.646323 0.160502)
      (xy 4.034387 0.329115)
      (xy 4.439862 0.394577)
      (xy 4.479836 0.395111)
      (xy 4.846218 0.395111)
      (xy 4.915542 0.719667)
      (xy 4.964829 1.05495)
      (xy 4.985724 1.437797)
      (xy 4.978838 1.82818)
      (xy 4.944782 2.18607)
      (xy 4.889064 2.455333)
      (xy 4.683022 2.954875)
      (xy 4.371938 3.422337)
      (xy 3.960301 3.852971)
      (xy 3.452602 4.242026)
      (xy 2.897216 4.562847)
      (xy 2.72019 4.642077)
      (xy 2.492522 4.730276)
      (xy 2.244979 4.817159)
      (xy 2.008327 4.892443)
      (xy 1.813333 4.945844)
      (xy 1.690765 4.967076)
      (xy 1.687779 4.967111)
      (xy 1.666742 4.915404)
      (xy 1.644558 4.778958)
      (xy 1.625619 4.585789)
      (xy 1.623618 4.557889)
      (xy 1.539235 4.036364)
      (xy 1.35576 3.539948)
      (xy 1.092925 3.088158)
      (xy 0.713618 2.620734)
      (xy 0.274066 2.246137)
      (xy -0.141111 2.001077)
      (xy -0.60965 1.812997)
      (xy -1.043741 1.726679)
      (xy -1.439396 1.74179)
      (xy -1.792622 1.857997)
      (xy -2.09943 2.074966)
      (xy -2.193021 2.172267)
      (xy -2.371575 2.375629)
      (xy -2.433333 2.217925)
      (xy -2.517327 1.965104)
      (xy -2.607505 1.62834)
      (xy -2.697807 1.235914)
      (xy -2.78217 0.816106)
      (xy -2.854534 0.397198)
      (xy -2.908836 0.007468)
      (xy -2.9109 -0.010152)
      (xy -2.949887 -0.45024)
      (xy -2.962222 -0.717854)
      (xy -2.087205 -0.717854)
      (xy -2.054264 -0.354836)
      (xy -1.959897 -0.047857)
      (xy -1.814558 0.193471)
      (xy -1.628701 0.359534)
      (xy -1.412778 0.440719)
      (xy -1.177243 0.427412)
      (xy -0.953792 0.324497)
      (xy -0.735453 0.116233)
      (xy -0.575357 -0.165612)
      (xy -0.47887 -0.494884)
      (xy -0.451354 -0.845425)
      (xy -0.498174 -1.19108)
      (xy -0.591228 -1.443453)
      (xy -0.763355 -1.699906)
      (xy -0.964277 -1.857775)
      (xy -1.181019 -1.923353)
      (xy -1.400607 -1.902935)
      (xy -1.610066 -1.802811)
      (xy -1.796421 -1.629277)
      (xy -1.946698 -1.388625)
      (xy -2.047921 -1.087149)
      (xy -2.087117 -0.731141)
      (xy -2.087205 -0.717854)
      (xy -2.962222 -0.717854)
      (xy -2.972167 -0.933614)
      (xy -2.978218 -1.433964)
      (xy -2.968519 -1.924979)
      (xy -2.943549 -2.38035)
      (xy -2.903785 -2.773765)
      (xy -2.855546 -3.053999)
      (xy -2.671099 -3.694243)
      (xy -2.429847 -4.242783)
      (xy -2.383413 -4.313961)
      (xy 0.232463 -4.313961)
      (xy 0.244282 -4.135598)
      (xy 0.347654 -3.939977)
      (xy 0.417689 -3.8608)
      (xy 0.599775 -3.728273)
      (xy 0.793911 -3.665879)
      (xy 0.968612 -3.679693)
      (xy 1.061155 -3.736622)
      (xy 1.11155 -3.849645)
      (xy 1.126763 -4.019539)
      (xy 1.105916 -4.195625)
      (xy 1.070771 -4.292904)
      (xy 0.980019 -4.395751)
      (xy 0.847796 -4.486749)
      (xy 0.619863 -4.561459)
      (xy 0.432899 -4.545295)
      (xy 0.299551 -4.456661)
      (xy 0.232463 -4.313961)
      (xy -2.383413 -4.313961)
      (xy -2.133276 -4.69739)
      (xy -1.782872 -5.055838)
      (xy -1.38012 -5.315899)
      (xy -1.331482 -5.338954)
      (xy -0.888727 -5.481172)
      (xy -0.421892 -5.516001)
      (xy 0.064802 -5.445337)
    )

    (stroke (width 0.01) (type solid)) (fill solid) (layer "F.Mask") (tstamp ac874283-0839-430e-bb0f-7295ffe49616))
)
