(footprint "Logo_irex_5.0x5.5mm_Copper" (version 20221018) (generator pcbnew)
  (layer "F.Cu")
  (attr board_only exclude_from_pos_files exclude_from_bom)
  (fp_text reference "G***" (at -0.19 -4.12) (layer "F.SilkS") hide
      (effects (font (size 1.524 1.524) (thickness 0.3)))
    (tstamp b50c9d76-f60b-40e9-8318-1941d067673d)
  )
  (fp_text value "IREX_LOGO" (at 0.21 4.39) (layer "F.SilkS") hide
      (effects (font (size 1.524 1.524) (thickness 0.3)))
    (tstamp c0bddd7b-5284-4116-aa1d-fd92a628e275)
  )
  (fp_poly
    (pts
      (xy -1.357232 1.192008)
      (xy -1.329687 1.257733)
      (xy -1.291965 1.348307)
      (xy -1.287935 1.358009)
      (xy -1.140885 1.659542)
      (xy -0.966468 1.92554)
      (xy -0.769187 2.150636)
      (xy -0.553545 2.329462)
      (xy -0.392691 2.424935)
      (xy -0.232472 2.4982)
      (xy -0.083532 2.548629)
      (xy 0.069907 2.579112)
      (xy 0.243625 2.59254)
      (xy 0.453398 2.591804)
      (xy 0.508 2.589951)
      (xy 0.675206 2.581497)
      (xy 0.805895 2.568575)
      (xy 0.919981 2.547867)
      (xy 1.037381 2.516054)
      (xy 1.128889 2.486512)
      (xy 1.462964 2.348533)
      (xy 1.763383 2.168359)
      (xy 2.039709 1.9401)
      (xy 2.080888 1.900145)
      (xy 2.181403 1.802746)
      (xy 2.24502 1.74678)
      (xy 2.272171 1.732851)
      (xy 2.263287 1.761565)
      (xy 2.2188 1.833525)
      (xy 2.139141 1.949337)
      (xy 2.127633 1.965652)
      (xy 1.94882 2.170448)
      (xy 1.723229 2.346514)
      (xy 1.453451 2.492478)
      (xy 1.142078 2.606968)
      (xy 0.791704 2.688611)
      (xy 0.747889 2.696018)
      (xy 0.625756 2.710237)
      (xy 0.462176 2.721345)
      (xy 0.272073 2.729071)
      (xy 0.070372 2.733141)
      (xy -0.128 2.733285)
      (xy -0.30812 2.729231)
      (xy -0.455061 2.720706)
      (xy -0.479778 2.718377)
      (xy -0.660427 2.697385)
      (xy -0.863752 2.669746)
      (xy -1.075616 2.637752)
      (xy -1.281882 2.603693)
      (xy -1.468413 2.56986)
      (xy -1.621072 2.538544)
      (xy -1.687832 2.522616)
      (xy -1.944611 2.442317)
      (xy -2.152363 2.347741)
      (xy -2.310021 2.240433)
      (xy -2.416518 2.121938)
      (xy -2.470787 1.993801)
      (xy -2.471761 1.857566)
      (xy -2.418374 1.714778)
      (xy -2.331077 1.5913)
      (xy -2.195621 1.470396)
      (xy -2.009141 1.362699)
      (xy -1.775985 1.270475)
      (xy -1.635755 1.228854)
      (xy -1.523017 1.19939)
      (xy -1.433627 1.177368)
      (xy -1.379497 1.165648)
      (xy -1.368882 1.16478)
      (xy -1.357232 1.192008)
    )

    (stroke (width 0.01) (type solid)) (fill solid) (layer "F.Cu") (tstamp 488900b5-de6e-475c-9d69-7574a7febd32))
  (fp_poly
    (pts
      (xy 0.032401 -2.722668)
      (xy 0.283569 -2.635537)
      (xy 0.540446 -2.497555)
      (xy 0.800925 -2.309669)
      (xy 1.062894 -2.072827)
      (xy 1.324245 -1.787977)
      (xy 1.340993 -1.768023)
      (xy 1.429541 -1.660973)
      (xy 1.50329 -1.569898)
      (xy 1.555508 -1.503257)
      (xy 1.579464 -1.469508)
      (xy 1.580273 -1.467389)
      (xy 1.557459 -1.447573)
      (xy 1.501562 -1.418248)
      (xy 1.49413 -1.414905)
      (xy 1.42562 -1.367625)
      (xy 1.355135 -1.293771)
      (xy 1.331852 -1.26191)
      (xy 1.294943 -1.200538)
      (xy 1.272326 -1.141888)
      (xy 1.260586 -1.069277)
      (xy 1.256303 -0.96602)
      (xy 1.255889 -0.891061)
      (xy 1.257722 -0.762573)
      (xy 1.266284 -0.669416)
      (xy 1.28617 -0.590521)
      (xy 1.321972 -0.504813)
      (xy 1.354647 -0.438077)
      (xy 1.485754 -0.225471)
      (xy 1.64397 -0.051227)
      (xy 1.823162 0.080251)
      (xy 2.017194 0.164558)
      (xy 2.219931 0.197289)
      (xy 2.239918 0.197556)
      (xy 2.423109 0.197556)
      (xy 2.457771 0.359834)
      (xy 2.482415 0.527475)
      (xy 2.492862 0.718899)
      (xy 2.489419 0.91409)
      (xy 2.472391 1.093035)
      (xy 2.444532 1.227667)
      (xy 2.341511 1.477438)
      (xy 2.185969 1.711169)
      (xy 1.980151 1.926486)
      (xy 1.726301 2.121013)
      (xy 1.448608 2.281424)
      (xy 1.360095 2.321039)
      (xy 1.246261 2.365138)
      (xy 1.12249 2.40858)
      (xy 1.004164 2.446222)
      (xy 0.906667 2.472922)
      (xy 0.845383 2.483538)
      (xy 0.84389 2.483556)
      (xy 0.833371 2.457702)
      (xy 0.822279 2.389479)
      (xy 0.81281 2.292895)
      (xy 0.811809 2.278945)
      (xy 0.769618 2.018182)
      (xy 0.67788 1.769974)
      (xy 0.546463 1.544079)
      (xy 0.356809 1.310367)
      (xy 0.137033 1.123069)
      (xy -0.070555 1.000539)
      (xy -0.304825 0.906499)
      (xy -0.52187 0.86334)
      (xy -0.719698 0.870895)
      (xy -0.896311 0.928999)
      (xy -1.049715 1.037483)
      (xy -1.09651 1.086134)
      (xy -1.185787 1.187815)
      (xy -1.216666 1.108963)
      (xy -1.258663 0.982552)
      (xy -1.303752 0.81417)
      (xy -1.348903 0.617957)
      (xy -1.391085 0.408053)
      (xy -1.427267 0.198599)
      (xy -1.454418 0.003734)
      (xy -1.45545 -0.005076)
      (xy -1.474943 -0.22512)
      (xy -1.48111 -0.358927)
      (xy -1.043602 -0.358927)
      (xy -1.027132 -0.177418)
      (xy -0.979948 -0.023928)
      (xy -0.907279 0.096736)
      (xy -0.81435 0.179767)
      (xy -0.706389 0.22036)
      (xy -0.588621 0.213706)
      (xy -0.476896 0.162249)
      (xy -0.367726 0.058117)
      (xy -0.287678 -0.082806)
      (xy -0.239435 -0.247442)
      (xy -0.225677 -0.422712)
      (xy -0.249087 -0.59554)
      (xy -0.295614 -0.721726)
      (xy -0.381677 -0.849953)
      (xy -0.482138 -0.928887)
      (xy -0.590509 -0.961676)
      (xy -0.700303 -0.951467)
      (xy -0.805033 -0.901405)
      (xy -0.89821 -0.814638)
      (xy -0.973349 -0.694312)
      (xy -1.02396 -0.543574)
      (xy -1.043558 -0.36557)
      (xy -1.043602 -0.358927)
      (xy -1.48111 -0.358927)
      (xy -1.486083 -0.466807)
      (xy -1.489109 -0.716982)
      (xy -1.484259 -0.962489)
      (xy -1.471774 -1.190175)
      (xy -1.451892 -1.386882)
      (xy -1.427773 -1.526999)
      (xy -1.335549 -1.847121)
      (xy -1.214923 -2.121391)
      (xy -1.191707 -2.15698)
      (xy 0.116232 -2.15698)
      (xy 0.122141 -2.067799)
      (xy 0.173827 -1.969988)
      (xy 0.208845 -1.9304)
      (xy 0.299888 -1.864136)
      (xy 0.396956 -1.832939)
      (xy 0.484306 -1.839846)
      (xy 0.530578 -1.868311)
      (xy 0.555775 -1.924822)
      (xy 0.563382 -2.009769)
      (xy 0.552958 -2.097812)
      (xy 0.535386 -2.146452)
      (xy 0.49001 -2.197875)
      (xy 0.423898 -2.243374)
      (xy 0.309932 -2.280729)
      (xy 0.21645 -2.272647)
      (xy 0.149776 -2.22833)
      (xy 0.116232 -2.15698)
      (xy -1.191707 -2.15698)
      (xy -1.066638 -2.348695)
      (xy -0.891436 -2.527919)
      (xy -0.69006 -2.657949)
      (xy -0.665741 -2.669477)
      (xy -0.444363 -2.740586)
      (xy -0.210946 -2.758)
      (xy 0.032401 -2.722668)
    )

    (stroke (width 0.01) (type solid)) (fill solid) (layer "F.Cu") (tstamp 3b113e46-1007-4a57-8e8d-ed0ee5abc7c7))
)
