(footprint "LED_Lite-On_LTST-C930_3.2x2.4mm" (version 20211014) (generator pcbnew)
  (layer "F.Cu")
  (tedit 6234EF54)
  (descr "SMD LED, 30mA, Lite-On")
  (tags "SMD LED Lite-On ")
  (attr smd)
  (fp_text reference "REF**" (at 0.8 -2.8) (layer "F.SilkS")
    (effects (font (size 1 1) (thickness 0.15)))
    (tstamp 2a73b5fd-2383-485e-a660-8cfc871296b9)
  )
  (fp_text value "LED_Lite-On_LTST-C930_3.2x2.4mm" (at 2.1 3) (layer "F.Fab")
    (effects (font (size 1 1) (thickness 0.15)))
    (tstamp 06f09c2f-89c0-45c5-9ecb-66d7577cc34e)
  )
  (fp_text user "${REFERENCE}" (at 2 0) (layer "F.Fab")
    (effects (font (size 1 1) (thickness 0.15)))
    (tstamp e6f54089-edbd-4192-8b03-c17afaf9aa51)
  )
  (fp_line (start 1.55 -1.6) (end -2.3 -1.6) (layer "F.SilkS") (width 0.12) (tstamp 73c27463-3a63-4900-8cdb-b505dd1691c1))
  (fp_line (start -2.3 -1.6) (end -2.3 1.6) (layer "F.SilkS") (width 0.12) (tstamp 8a6d997e-a0d1-4398-a828-5ba156dc90a2))
  (fp_line (start -2.3 1.6) (end 1.55 1.6) (layer "F.SilkS") (width 0.12) (tstamp 926503af-a4d6-4cb0-b3ad-42d3a4804bfc))
  (fp_line (start 2.35 -1.65) (end -2.35 -1.65) (layer "F.CrtYd") (width 0.05) (tstamp 08b96519-486e-44d4-8a0b-c17c4369818a))
  (fp_line (start 2.35 1.65) (end 2.35 -1.65) (layer "F.CrtYd") (width 0.05) (tstamp 4c5da3c6-bd97-4c66-bdf3-25a203e0beb7))
  (fp_line (start -2.35 -1.65) (end -2.35 1.65) (layer "F.CrtYd") (width 0.05) (tstamp 75bdc5a9-1435-4fd7-9f0d-ba67d52f18b2))
  (fp_line (start -2.35 1.65) (end 2.35 1.65) (layer "F.CrtYd") (width 0.05) (tstamp 9aa2ea98-831f-4919-b385-ea6ad0bd225f))
  (fp_line (start -1.6 0.244949) (end -1.6 1.2) (layer "F.Fab") (width 0.1) (tstamp 1ac7b53c-45b6-479f-9407-c5c820a3a597))
  (fp_line (start -1.6 -0.775736) (end -1.175736 -1.2) (layer "F.Fab") (width 0.1) (tstamp 2ccb30f8-aafa-482d-a020-e2439a9c8bc8))
  (fp_line (start -1.6 -0.244949) (end -1.6 -0.775736) (layer "F.Fab") (width 0.1) (tstamp 4d1579a7-1917-4900-bd26-c000a201a677))
  (fp_line (start -1.6 1.2) (end 1.6 1.2) (layer "F.Fab") (width 0.1) (tstamp 941b590b-a165-4ba2-bc1d-5b6e8618a260))
  (fp_line (start 1.6 1.2) (end 1.6 0.244949) (layer "F.Fab") (width 0.1) (tstamp 98283141-ee25-4fc8-b07b-ed78c9509cae))
  (fp_line (start 1.6 -0.244949) (end 1.6 -1.2) (layer "F.Fab") (width 0.1) (tstamp f5f2bec6-f79f-46ef-82bc-bc091b66363d))
  (fp_line (start -1.175736 -1.2) (end 1.6 -1.2) (layer "F.Fab") (width 0.1) (tstamp f778c648-8472-43dc-ac7c-205c868fca79))
  (fp_arc (start -1.6 -0.244949) (mid -1.4 0) (end -1.6 0.244949) (layer "F.Fab") (width 0.1) (tstamp 14caa7ec-22dc-4734-9826-9b17361be41d))
  (fp_arc (start 1.6 0.244949) (mid 1.4 0) (end 1.6 -0.244949) (layer "F.Fab") (width 0.1) (tstamp 5f3aa5b2-98c8-4744-a9a4-e23906e20aad))
  (fp_circle (center 0 0) (end 0.896256 0) (layer "F.Fab") (width 0.1) (fill none) (tstamp 9d47dea6-1c42-4e10-9e08-5f05046c6a55))
  (pad "1" smd roundrect (at -1.55 0) (size 1.1 2.8) (layers "F.Cu" "F.Paste" "F.Mask") (roundrect_rratio 0.25) (tstamp 3df35c9c-3c54-4174-81b2-a73bbcb72d71))
  (pad "2" smd roundrect (at 1.55 0) (size 1.1 2.8) (layers "F.Cu" "F.Paste" "F.Mask") (roundrect_rratio 0.25) (tstamp d9b62c8a-9f39-4585-850a-0a0824b2e660))
  (group "" (id 38ff2bd7-297b-4f5f-ad9f-c14b95980733)
    (members
      14caa7ec-22dc-4734-9826-9b17361be41d
      1ac7b53c-45b6-479f-9407-c5c820a3a597
      2ccb30f8-aafa-482d-a020-e2439a9c8bc8
      4d1579a7-1917-4900-bd26-c000a201a677
      5f3aa5b2-98c8-4744-a9a4-e23906e20aad
      941b590b-a165-4ba2-bc1d-5b6e8618a260
      98283141-ee25-4fc8-b07b-ed78c9509cae
      9d47dea6-1c42-4e10-9e08-5f05046c6a55
      f5f2bec6-f79f-46ef-82bc-bc091b66363d
      f778c648-8472-43dc-ac7c-205c868fca79
    )
  )
  (group "" (id 680a76cf-81ff-465b-8183-cd87e0957244)
    (members
      08b96519-486e-44d4-8a0b-c17c4369818a
      4c5da3c6-bd97-4c66-bdf3-25a203e0beb7
      75bdc5a9-1435-4fd7-9f0d-ba67d52f18b2
      9aa2ea98-831f-4919-b385-ea6ad0bd225f
    )
  )
  (group "" (id 895ee3c0-16e3-497b-b74e-5691e55128b8)
    (members
      73c27463-3a63-4900-8cdb-b505dd1691c1
      8a6d997e-a0d1-4398-a828-5ba156dc90a2
      926503af-a4d6-4cb0-b3ad-42d3a4804bfc
    )
  )
  (model "${IREX_3DMODEL_DIR}/irex_LED_SMD.3dshapes/LED_Lite-On_LTST-C930_3.2x2.4mm.step"
    (offset (xyz 0 0 0))
    (scale (xyz 1 1 1))
    (rotate (xyz 0 0 0))
  )
)
