(footprint "LED_Kingbright_AA3528V_3.5x2.8mm_handsolder" (version 20211014) (generator pcbnew)
  (layer "F.Cu")
  (tedit 6234EF54)
  (descr "Pink SMD LED, 20mA, Kingbright")
  (tags "SMD LED Kingbright ")
  (attr smd)
  (fp_text reference "REF**" (at 0.8 -2.8) (layer "F.SilkS")
    (effects (font (size 1 1) (thickness 0.15)))
    (tstamp 2a73b5fd-2383-485e-a660-8cfc871296b9)
  )
  (fp_text value "LED_Kingbright_AA3528V_3.5x2.8mm_handsolder" (at 2.1 3) (layer "F.Fab")
    (effects (font (size 1 1) (thickness 0.15)))
    (tstamp 06f09c2f-89c0-45c5-9ecb-66d7577cc34e)
  )
  (fp_text user "${REFERENCE}" (at 2 0) (layer "F.Fab")
    (effects (font (size 1 1) (thickness 0.15)))
    (tstamp e6f54089-edbd-4192-8b03-c17afaf9aa51)
  )
  (fp_line (start -1.2 -1.6) (end -1.2 1.6) (layer "F.SilkS") (width 0.12) (tstamp 0baf248c-45e6-4eaa-b1e3-a634b9ab1ce3))
  (fp_line (start -1.2 1.6) (end 1.5 1.6) (layer "F.SilkS") (width 0.12) (tstamp 1f77659a-0e83-49d0-8a27-651668b0f815))
  (fp_line (start 1.5 -1.6) (end -1.2 -1.6) (layer "F.SilkS") (width 0.12) (tstamp 8658e090-01b2-4cc6-97dd-049eee8b64c1))
  (fp_line (start -1.25 -1.65) (end 4.85 -1.65) (layer "F.CrtYd") (width 0.05) (tstamp 05ca8424-ab60-44ce-a71c-838895757b03))
  (fp_line (start -1.25 1.65) (end -1.25 -1.65) (layer "F.CrtYd") (width 0.05) (tstamp a0e841de-df4f-48a2-80f9-2fe7a47e638b))
  (fp_line (start 4.85 1.65) (end -1.25 1.65) (layer "F.CrtYd") (width 0.05) (tstamp a559a8ec-a838-41e4-9798-65c07d395886))
  (fp_line (start 4.85 -1.65) (end 4.85 1.65) (layer "F.CrtYd") (width 0.05) (tstamp cee4ba28-1299-487b-b84b-964a102dc786))
  (fp_line (start 3.4 -1.4) (end 3.4 1.4) (layer "F.Fab") (width 0.1) (tstamp 20da1bfc-1063-40a1-a6f4-081296938afa))
  (fp_line (start 0.199999 1.399999) (end 0.199999 -0.692893) (layer "F.Fab") (width 0.1) (tstamp 8c306600-74f2-420d-afac-24f5da772bd0))
  (fp_line (start 3.4 1.4) (end 0.199999 1.399999) (layer "F.Fab") (width 0.1) (tstamp af50a04d-0525-45ce-8dd2-05c4d21ff517))
  (fp_line (start 0.907106 -1.4) (end 3.4 -1.4) (layer "F.Fab") (width 0.1) (tstamp da5b739a-6cbe-4773-87c2-c6871ebb1ad7))
  (fp_line (start 0.199999 -0.692893) (end 0.907106 -1.4) (layer "F.Fab") (width 0.1) (tstamp e9aacdad-d803-402b-a122-857b7d554bf4))
  (pad "1" smd rect (at 0 0.01) (size 2 2.2) (layers "F.Cu" "F.Paste" "F.Mask") (tstamp bef7f680-ebc7-4040-81df-74f10b0807fb))
  (pad "2" smd roundrect (at 3.6 0.01) (size 2 2.2) (layers "F.Cu" "F.Paste" "F.Mask") (roundrect_rratio 0.1) (tstamp ccc4837e-c1e7-495f-a93f-4cc81b5211cc))
  (model "${IREX_3DMODEL_DIR}/irex_LED_SMD.3dshapes/LED_Kingsbright_AA3528V_3.5x2.8mm_handsolder.step"
    (offset (xyz 0 0 0))
    (scale (xyz 1 1 1))
    (rotate (xyz 0 0 0))
  )
)
