(kicad_symbol_lib (version 20211014) (generator kicad_symbol_editor)
  (symbol "MAX1164x" (pin_names (offset 1.016)) (in_bom yes) (on_board yes)
    (property "Reference" "U" (id 0) (at -7.62 12.7 0)
      (effects (font (size 1.27 1.27)))
    )
    (property "Value" "MAX1164x" (id 1) (at -7.62 10.16 0)
      (effects (font (size 1.27 1.27)))
    )
    (property "Footprint" "Package_SO:MSOP-8_3x3mm_P0.65mm" (id 2) (at 20.32 -12.7 0)
      (effects (font (size 1.27 1.27)) hide)
    )
    (property "Datasheet" "https://datasheets.maximintegrated.com/en/ds/MAX11644-MAX11645.pdf" (id 3) (at -5.08 2.54 0)
      (effects (font (size 1.27 1.27)) hide)
    )
    (property "ki_keywords" "12 bit ADC I2C" (id 4) (at 0 0 0)
      (effects (font (size 1.27 1.27)) hide)
    )
    (property "ki_description" "12-bit 2 channel low power ADC with I2C interface and built in reference" (id 5) (at 0 0 0)
      (effects (font (size 1.27 1.27)) hide)
    )
    (symbol "MAX1164x_0_1"
      (rectangle (start -7.62 7.62) (end 7.62 -10.16)
        (stroke (width 0.254) (type default) (color 0 0 0 0))
        (fill (type background))
      )
    )
    (symbol "MAX1164x_1_1"
      (pin input line (at -10.16 2.54 0) (length 2.54)
        (name "AIN0" (effects (font (size 1.27 1.27))))
        (number "1" (effects (font (size 1.27 1.27))))
      )
      (pin input line (at -10.16 0 0) (length 2.54)
        (name "AIN1" (effects (font (size 1.27 1.27))))
        (number "2" (effects (font (size 1.27 1.27))))
      )
      (pin no_connect line (at -10.16 -2.54 0) (length 2.54) hide
        (name "NC" (effects (font (size 1.27 1.27))))
        (number "3" (effects (font (size 1.27 1.27))))
      )
      (pin bidirectional line (at -10.16 -5.08 0) (length 2.54)
        (name "REF" (effects (font (size 1.27 1.27))))
        (number "4" (effects (font (size 1.27 1.27))))
      )
      (pin input line (at 10.16 -2.54 180) (length 2.54)
        (name "SCL" (effects (font (size 1.27 1.27))))
        (number "5" (effects (font (size 1.27 1.27))))
      )
      (pin bidirectional line (at 10.16 0 180) (length 2.54)
        (name "SDA" (effects (font (size 1.27 1.27))))
        (number "6" (effects (font (size 1.27 1.27))))
      )
      (pin power_in line (at 0 -12.7 90) (length 2.54)
        (name "GND" (effects (font (size 1.27 1.27))))
        (number "7" (effects (font (size 1.27 1.27))))
      )
      (pin power_in line (at 0 10.16 270) (length 2.54)
        (name "VDD" (effects (font (size 1.27 1.27))))
        (number "8" (effects (font (size 1.27 1.27))))
      )
    )
  )
  (symbol "NAU7802" (pin_names (offset 1.016)) (in_bom yes) (on_board yes)
    (property "Reference" "U" (id 0) (at -13.97 19.05 0)
      (effects (font (size 1.27 1.27)) (justify left))
    )
    (property "Value" "NAU7802" (id 1) (at -13.97 16.51 0)
      (effects (font (size 1.27 1.27)) (justify left))
    )
    (property "Footprint" "Package_SO:SOP-16_4.55x10.3mm_P1.27mm" (id 2) (at 5.08 -22.86 0)
      (effects (font (size 1.27 1.27)) (justify left) hide)
    )
    (property "Datasheet" "https://www.nuvoton.com/export/resource-files/NAU7802%20Data%20Sheet%20V1.7.pdf" (id 3) (at 1.27 22.86 0)
      (effects (font (size 1.27 1.27)) hide)
    )
    (property "MPN" "NAU7802" (id 4) (at 5.08 -20.32 0)
      (effects (font (size 1.27 1.27)) (justify left) hide)
    )
    (property "ki_keywords" "ADC" (id 5) (at 0 0 0)
      (effects (font (size 1.27 1.27)) hide)
    )
    (property "ki_description" "24-bit 2 channel ADC" (id 6) (at 0 0 0)
      (effects (font (size 1.27 1.27)) hide)
    )
    (property "ki_fp_filters" "SOP*16 DIP*16" (id 7) (at 0 0 0)
      (effects (font (size 1.27 1.27)) hide)
    )
    (symbol "NAU7802_0_1"
      (rectangle (start -12.7 15.24) (end 12.7 -15.24)
        (stroke (width 0) (type default) (color 0 0 0 0))
        (fill (type background))
      )
    )
    (symbol "NAU7802_1_1"
      (pin input line (at -15.24 -7.62 0) (length 2.54)
        (name "REFP" (effects (font (size 1.27 1.27))))
        (number "1" (effects (font (size 1.27 1.27))))
      )
      (pin input line (at 15.24 -2.54 180) (length 2.54)
        (name "XIN" (effects (font (size 1.27 1.27))))
        (number "10" (effects (font (size 1.27 1.27))))
      )
      (pin output line (at 15.24 -5.08 180) (length 2.54)
        (name "XOUT" (effects (font (size 1.27 1.27))))
        (number "11" (effects (font (size 1.27 1.27))))
      )
      (pin output line (at 15.24 2.54 180) (length 2.54)
        (name "DRDY" (effects (font (size 1.27 1.27))))
        (number "12" (effects (font (size 1.27 1.27))))
      )
      (pin input line (at 15.24 10.16 180) (length 2.54)
        (name "SCLK" (effects (font (size 1.27 1.27))))
        (number "13" (effects (font (size 1.27 1.27))))
      )
      (pin bidirectional line (at 15.24 7.62 180) (length 2.54)
        (name "SDIO" (effects (font (size 1.27 1.27))))
        (number "14" (effects (font (size 1.27 1.27))))
      )
      (pin power_in line (at 2.54 17.78 270) (length 2.54)
        (name "DVDD" (effects (font (size 1.27 1.27))))
        (number "15" (effects (font (size 1.27 1.27))))
      )
      (pin power_in line (at -2.54 17.78 270) (length 2.54)
        (name "LDO/AVDD" (effects (font (size 1.27 1.27))))
        (number "16" (effects (font (size 1.27 1.27))))
      )
      (pin input line (at -15.24 7.62 0) (length 2.54)
        (name "VIN1N" (effects (font (size 1.27 1.27))))
        (number "2" (effects (font (size 1.27 1.27))))
      )
      (pin input line (at -15.24 10.16 0) (length 2.54)
        (name "VIN1P" (effects (font (size 1.27 1.27))))
        (number "3" (effects (font (size 1.27 1.27))))
      )
      (pin input line (at -15.24 0 0) (length 2.54)
        (name "VIN2N" (effects (font (size 1.27 1.27))))
        (number "4" (effects (font (size 1.27 1.27))))
      )
      (pin input line (at -15.24 2.54 0) (length 2.54)
        (name "VIN2P" (effects (font (size 1.27 1.27))))
        (number "5" (effects (font (size 1.27 1.27))))
      )
      (pin output line (at 15.24 -10.16 180) (length 2.54)
        (name "VBG" (effects (font (size 1.27 1.27))))
        (number "6" (effects (font (size 1.27 1.27))))
      )
      (pin input line (at -15.24 -10.16 0) (length 2.54)
        (name "REFN" (effects (font (size 1.27 1.27))))
        (number "7" (effects (font (size 1.27 1.27))))
      )
      (pin power_in line (at -2.54 -17.78 90) (length 2.54)
        (name "AVSS" (effects (font (size 1.27 1.27))))
        (number "8" (effects (font (size 1.27 1.27))))
      )
      (pin power_in line (at 2.54 -17.78 90) (length 2.54)
        (name "DVSS" (effects (font (size 1.27 1.27))))
        (number "9" (effects (font (size 1.27 1.27))))
      )
    )
  )
)
