(kicad_symbol_lib (version 20211014) (generator kicad_symbol_editor)
  (symbol "CM1213A−02Sx" (pin_names (offset 0)) (in_bom yes) (on_board yes)
    (property "Reference" "U" (id 0) (at -5.715 9.525 0)
      (effects (font (size 1.27 1.27)))
    )
    (property "Value" "CM1213A−02Sx" (id 1) (at -9.525 6.985 0)
      (effects (font (size 1.27 1.27)))
    )
    (property "Footprint" "" (id 2) (at 1.27 16.51 0)
      (effects (font (size 1.27 1.27)) hide)
    )
    (property "Datasheet" "https://www.onsemi.com/pdf/datasheet/cm1213a-d.pdf" (id 3) (at 0 -19.05 0)
      (effects (font (size 1.27 1.27)) hide)
    )
    (property "ki_keywords" "TVS ESD Protection Diodes" (id 4) (at 0 0 0)
      (effects (font (size 1.27 1.27)) hide)
    )
    (property "ki_description" "2-channel high-speed ESD protection diodes" (id 5) (at 0 0 0)
      (effects (font (size 1.27 1.27)) hide)
    )
    (property "ki_fp_filters" "*SOT*143 *SC*74" (id 6) (at 0 0 0)
      (effects (font (size 1.27 1.27)) hide)
    )
    (symbol "CM1213A−02Sx_0_0"
      (rectangle (start -3.175 3.81) (end 3.175 -3.81)
        (stroke (width 0) (type default) (color 0 0 0 0))
        (fill (type none))
      )
    )
    (symbol "CM1213A−02Sx_0_1"
      (rectangle (start -5.08 5.715) (end 5.08 -5.715)
        (stroke (width 0.254) (type default) (color 0 0 0 0))
        (fill (type background))
      )
      (circle (center -3.175 0) (radius 0.2794)
        (stroke (width 0) (type default) (color 0 0 0 0))
        (fill (type outline))
      )
      (circle (center 0 -3.81) (radius 0.2794)
        (stroke (width 0) (type default) (color 0 0 0 0))
        (fill (type outline))
      )
      (polyline
        (pts
          (xy -5.08 0)
          (xy -3.175 0)
        )
        (stroke (width 0) (type default) (color 0 0 0 0))
        (fill (type none))
      )
      (polyline
        (pts
          (xy -2.54 -1.27)
          (xy -3.81 -1.27)
        )
        (stroke (width 0) (type default) (color 0 0 0 0))
        (fill (type none))
      )
      (polyline
        (pts
          (xy -2.54 2.54)
          (xy -3.81 2.54)
        )
        (stroke (width 0) (type default) (color 0 0 0 0))
        (fill (type none))
      )
      (polyline
        (pts
          (xy 0 5.715)
          (xy 0 -5.715)
        )
        (stroke (width 0) (type default) (color 0 0 0 0))
        (fill (type none))
      )
      (polyline
        (pts
          (xy 0.635 0.889)
          (xy 1.016 1.27)
        )
        (stroke (width 0.1524) (type default) (color 0 0 0 0))
        (fill (type none))
      )
      (polyline
        (pts
          (xy 3.81 -1.27)
          (xy 2.54 -1.27)
        )
        (stroke (width 0) (type default) (color 0 0 0 0))
        (fill (type none))
      )
      (polyline
        (pts
          (xy 3.81 2.54)
          (xy 2.54 2.54)
        )
        (stroke (width 0) (type default) (color 0 0 0 0))
        (fill (type none))
      )
      (polyline
        (pts
          (xy 5.08 0)
          (xy 3.175 0)
        )
        (stroke (width 0) (type default) (color 0 0 0 0))
        (fill (type none))
      )
      (polyline
        (pts
          (xy 0.635 0.889)
          (xy -0.635 0.889)
          (xy -1.016 0.508)
        )
        (stroke (width 0) (type default) (color 0 0 0 0))
        (fill (type none))
      )
      (polyline
        (pts
          (xy -2.54 -2.54)
          (xy -3.81 -2.54)
          (xy -3.175 -1.27)
          (xy -2.54 -2.54)
        )
        (stroke (width 0) (type default) (color 0 0 0 0))
        (fill (type none))
      )
      (polyline
        (pts
          (xy -2.54 1.27)
          (xy -3.81 1.27)
          (xy -3.175 2.54)
          (xy -2.54 1.27)
        )
        (stroke (width 0) (type default) (color 0 0 0 0))
        (fill (type none))
      )
      (polyline
        (pts
          (xy 0.635 -0.381)
          (xy -0.635 -0.381)
          (xy 0 0.889)
          (xy 0.635 -0.381)
        )
        (stroke (width 0) (type default) (color 0 0 0 0))
        (fill (type none))
      )
      (polyline
        (pts
          (xy 3.81 -2.54)
          (xy 2.54 -2.54)
          (xy 3.175 -1.27)
          (xy 3.81 -2.54)
        )
        (stroke (width 0) (type default) (color 0 0 0 0))
        (fill (type none))
      )
      (polyline
        (pts
          (xy 3.81 1.27)
          (xy 2.54 1.27)
          (xy 3.175 2.54)
          (xy 3.81 1.27)
        )
        (stroke (width 0) (type default) (color 0 0 0 0))
        (fill (type none))
      )
      (circle (center 0 3.81) (radius 0.2794)
        (stroke (width 0) (type default) (color 0 0 0 0))
        (fill (type outline))
      )
      (circle (center 3.175 0) (radius 0.2794)
        (stroke (width 0) (type default) (color 0 0 0 0))
        (fill (type outline))
      )
    )
    (symbol "CM1213A−02Sx_1_1"
      (pin passive line (at 0 -10.16 90) (length 5.08)
        (name "VN" (effects (font (size 1.27 1.27))))
        (number "1" (effects (font (size 1.27 1.27))))
      )
      (pin passive line (at -10.16 0 0) (length 5.08)
        (name "CH1" (effects (font (size 1.27 1.27))))
        (number "2" (effects (font (size 1.27 1.27))))
      )
      (pin passive line (at 10.16 0 180) (length 5.08)
        (name "CH2" (effects (font (size 1.27 1.27))))
        (number "3" (effects (font (size 1.27 1.27))))
      )
      (pin passive line (at 0 10.16 270) (length 5.08)
        (name "VP" (effects (font (size 1.27 1.27))))
        (number "4" (effects (font (size 1.27 1.27))))
      )
    )
  )
)
