(footprint "RotaryEncodoer_Bourns_Vertical_PEC11L-4xxxF-Sxxxx_ShieldPads"
	(version 20240108)
	(generator "pcbnew")
	(generator_version "8.0")
	(layer "F.Cu")
	(descr "Bourns vertical mount PEC11L rotary encoder with switch")
	(tags "Bourns rotary encoder switch")
	(property "Reference" "REF**"
		(at 3.3 -4.7 0)
		(unlocked yes)
		(layer "F.SilkS")
		(uuid "1b8ce180-7f02-4935-9953-5b3a729c31c6")
		(effects
			(font
				(size 1 1)
				(thickness 0.15)
			)
		)
	)
	(property "Value" "RotaryEncodoer_Bourns_Vertical_PEC11L-4xxxF-Sxxxx_ShieldPads"
		(at 7.5 12 0)
		(unlocked yes)
		(layer "F.Fab")
		(uuid "7a333716-cc5a-4580-9fe4-1c49ae0b34ae")
		(effects
			(font
				(size 1 1)
				(thickness 0.15)
			)
		)
	)
	(property "Footprint" ""
		(at 0 0 0)
		(layer "F.Fab")
		(hide yes)
		(uuid "42bfaac6-46aa-44bf-849c-0152f4defb39")
		(effects
			(font
				(size 1.27 1.27)
				(thickness 0.15)
			)
		)
	)
	(property "Datasheet" ""
		(at 0 0 0)
		(layer "F.Fab")
		(hide yes)
		(uuid "80295428-7719-4e93-964e-8a732747ef97")
		(effects
			(font
				(size 1.27 1.27)
				(thickness 0.15)
			)
		)
	)
	(property "Description" ""
		(at 0 0 0)
		(layer "F.Fab")
		(hide yes)
		(uuid "528dc3f3-d809-4ec4-b9ea-cae032a97cc2")
		(effects
			(font
				(size 1.27 1.27)
				(thickness 0.15)
			)
		)
	)
	(attr through_hole)
	(fp_line
		(start 1.35 7.35)
		(end 1.35 -2.35)
		(stroke
			(width 0.15)
			(type solid)
		)
		(layer "F.SilkS")
		(uuid "2a457e24-308a-4020-b986-eea485de19b7")
	)
	(fp_line
		(start 2.55 -3.55)
		(end 5.717124 -3.55)
		(stroke
			(width 0.15)
			(type solid)
		)
		(layer "F.SilkS")
		(uuid "3ca5ac59-4270-4a70-9a12-3256ab8079ff")
	)
	(fp_line
		(start 5.717127 8.55)
		(end 2.549997 8.55)
		(stroke
			(width 0.15)
			(type solid)
		)
		(layer "F.SilkS")
		(uuid "589a9e05-82a3-4dd2-b113-c4394e7d1e31")
	)
	(fp_line
		(start 9.282873 -3.55)
		(end 12.549997 -3.55)
		(stroke
			(width 0.15)
			(type solid)
		)
		(layer "F.SilkS")
		(uuid "70a26926-c742-42a3-86ac-04556e7c3330")
	)
	(fp_line
		(start 12.55 8.55)
		(end 9.282873 8.55)
		(stroke
			(width 0.15)
			(type solid)
		)
		(layer "F.SilkS")
		(uuid "1374bf52-cecf-4991-84ba-d3e6ba8fa02c")
	)
	(fp_line
		(start 13.75 -2.35)
		(end 13.75 -0.770144)
		(stroke
			(width 0.15)
			(type solid)
		)
		(layer "F.SilkS")
		(uuid "a28c2b1b-2a84-49ea-b065-fc954511d3e3")
	)
	(fp_line
		(start 13.75 0.770146)
		(end 13.75 4.229854)
		(stroke
			(width 0.15)
			(type solid)
		)
		(layer "F.SilkS")
		(uuid "50653e4f-f4c1-453d-847d-bc7516980d3b")
	)
	(fp_line
		(start 13.75 5.770146)
		(end 13.75 7.350002)
		(stroke
			(width 0.15)
			(type solid)
		)
		(layer "F.SilkS")
		(uuid "7b8b0d89-8d3c-40bb-b53d-af3c44c9b824")
	)
	(fp_arc
		(start 1.35 -2.35)
		(mid 1.701472 -3.198528)
		(end 2.55 -3.55)
		(stroke
			(width 0.15)
			(type solid)
		)
		(layer "F.SilkS")
		(uuid "b31c679c-b2c1-42c0-b96d-a5b06176166f")
	)
	(fp_arc
		(start 2.549997 8.55)
		(mid 1.701471 8.198527)
		(end 1.35 7.35)
		(stroke
			(width 0.15)
			(type solid)
		)
		(layer "F.SilkS")
		(uuid "e4e61bad-31f6-4e5e-be8a-f68e6787890d")
	)
	(fp_arc
		(start 12.549997 -3.55)
		(mid 13.398527 -3.198529)
		(end 13.75 -2.35)
		(stroke
			(width 0.15)
			(type solid)
		)
		(layer "F.SilkS")
		(uuid "46886f79-3550-44cb-937d-b1cd272aeb90")
	)
	(fp_arc
		(start 13.75 7.350002)
		(mid 13.398527 8.198529)
		(end 12.55 8.55)
		(stroke
			(width 0.15)
			(type solid)
		)
		(layer "F.SilkS")
		(uuid "deea1bc2-b02a-471d-b7ee-e3b20e08fff4")
	)
	(fp_line
		(start -1.05 -1.05)
		(end 1.3 -1.05)
		(stroke
			(width 0.05)
			(type solid)
		)
		(layer "F.CrtYd")
		(uuid "d11d9d93-14c6-4179-bdfb-bdf0bd14d11f")
	)
	(fp_line
		(start -1.05 2.5)
		(end -1.05 -1.05)
		(stroke
			(width 0.05)
			(type solid)
		)
		(layer "F.CrtYd")
		(uuid "843f9a99-ef05-40ae-ad16-0da54f09f017")
	)
	(fp_line
		(start -1.05 2.5)
		(end -1.05 6.05)
		(stroke
			(width 0.05)
			(type solid)
		)
		(layer "F.CrtYd")
		(uuid "bf4da81f-9e4d-4e93-96ac-5bb0a5b9dd5d")
	)
	(fp_line
		(start -1.05 6.05)
		(end 1.3 6.05)
		(stroke
			(width 0.05)
			(type solid)
		)
		(layer "F.CrtYd")
		(uuid "d3a49b5a-67e5-4031-9103-a4ce38ef09f4")
	)
	(fp_line
		(start 1.3 -3.6)
		(end 5.49 -3.6)
		(stroke
			(width 0.05)
			(type solid)
		)
		(layer "F.CrtYd")
		(uuid "e60214aa-1c8b-4f63-a3e8-c92cfd53121b")
	)
	(fp_line
		(start 1.3 -1.05)
		(end 1.3 -3.6)
		(stroke
			(width 0.05)
			(type solid)
		)
		(layer "F.CrtYd")
		(uuid "53ba1ca5-5e3f-4da6-b98d-0ac164867748")
	)
	(fp_line
		(start 1.3 6.05)
		(end 1.3 8.6)
		(stroke
			(width 0.05)
			(type solid)
		)
		(layer "F.CrtYd")
		(uuid "54ee3425-bbc5-433d-9ddd-271112838f96")
	)
	(fp_line
		(start 1.3 8.6)
		(end 5.49 8.6)
		(stroke
			(width 0.05)
			(type solid)
		)
		(layer "F.CrtYd")
		(uuid "abde7fe1-b66e-4ebe-9c19-3989e8c7c98e")
	)
	(fp_line
		(start 5.49 -3.6)
		(end 6.54 -4.65)
		(stroke
			(width 0.05)
			(type solid)
		)
		(layer "F.CrtYd")
		(uuid "e6ad1d0d-7136-4c34-a940-ed62da70fb53")
	)
	(fp_line
		(start 5.49 8.6)
		(end 6.54 9.65)
		(stroke
			(width 0.05)
			(type solid)
		)
		(layer "F.CrtYd")
		(uuid "9de22b48-c554-4dc3-84c4-66e72d3106ec")
	)
	(fp_line
		(start 6.54 -4.65)
		(end 7.5 -4.65)
		(stroke
			(width 0.05)
			(type solid)
		)
		(layer "F.CrtYd")
		(uuid "755ded9f-6c89-4b23-b4e7-3bce79f11562")
	)
	(fp_line
		(start 6.54 9.65)
		(end 7.5 9.65)
		(stroke
			(width 0.05)
			(type solid)
		)
		(layer "F.CrtYd")
		(uuid "2f14c6c6-38ff-42f0-8e44-b878bafcc9ef")
	)
	(fp_line
		(start 8.46 -4.65)
		(end 7.5 -4.65)
		(stroke
			(width 0.05)
			(type solid)
		)
		(layer "F.CrtYd")
		(uuid "7ee9a84b-7a1d-4774-93a3-68d2491fb042")
	)
	(fp_line
		(start 8.46 9.65)
		(end 7.5 9.65)
		(stroke
			(width 0.05)
			(type solid)
		)
		(layer "F.CrtYd")
		(uuid "1a136539-af9c-4435-8476-36387dbcf86f")
	)
	(fp_line
		(start 9.51 -3.6)
		(end 8.46 -4.65)
		(stroke
			(width 0.05)
			(type solid)
		)
		(layer "F.CrtYd")
		(uuid "10fa7b2a-8c8e-4e91-af25-96242a81f395")
	)
	(fp_line
		(start 9.51 8.6)
		(end 8.46 9.65)
		(stroke
			(width 0.05)
			(type solid)
		)
		(layer "F.CrtYd")
		(uuid "4991335c-6acb-4026-bdfc-7467fa979ea3")
	)
	(fp_line
		(start 13.8 -3.6)
		(end 9.51 -3.6)
		(stroke
			(width 0.05)
			(type solid)
		)
		(layer "F.CrtYd")
		(uuid "4fbcd905-b396-4db8-83ec-fd8f60c524f5")
	)
	(fp_line
		(start 13.8 -1.05)
		(end 13.8 -3.6)
		(stroke
			(width 0.05)
			(type solid)
		)
		(layer "F.CrtYd")
		(uuid "aa118d76-0fd2-4ab2-9da3-c8c419ffe210")
	)
	(fp_line
		(start 13.8 6.05)
		(end 13.8 8.6)
		(stroke
			(width 0.05)
			(type solid)
		)
		(layer "F.CrtYd")
		(uuid "5c8ccaf6-b1da-4282-b425-e251139b40ae")
	)
	(fp_line
		(start 13.8 8.6)
		(end 9.51 8.6)
		(stroke
			(width 0.05)
			(type solid)
		)
		(layer "F.CrtYd")
		(uuid "de6a8f43-0a17-4c5d-a25b-4e33a591e0d8")
	)
	(fp_line
		(start 15.55 -1.05)
		(end 13.8 -1.05)
		(stroke
			(width 0.05)
			(type solid)
		)
		(layer "F.CrtYd")
		(uuid "697a1340-ecc0-4738-9afb-4e3eb919ae40")
	)
	(fp_line
		(start 15.55 -1.05)
		(end 15.55 6.05)
		(stroke
			(width 0.05)
			(type solid)
		)
		(layer "F.CrtYd")
		(uuid "be17d74e-f9ec-44c5-8b18-abbe026308b0")
	)
	(fp_line
		(start 15.55 6.05)
		(end 13.8 6.05)
		(stroke
			(width 0.05)
			(type solid)
		)
		(layer "F.CrtYd")
		(uuid "da569002-66bb-4fea-a90f-dce04578c8fb")
	)
	(fp_line
		(start 1.55 7.35)
		(end 1.55 -2.35)
		(stroke
			(width 0.1)
			(type solid)
		)
		(layer "F.Fab")
		(uuid "56adf6c4-aee7-4bb9-a68d-d6d085a81f87")
	)
	(fp_line
		(start 2.55 -3.35)
		(end 12.55 -3.35)
		(stroke
			(width 0.1)
			(type solid)
		)
		(layer "F.Fab")
		(uuid "f4e3f203-706c-4a72-b351-6d070d45f7c9")
	)
	(fp_line
		(start 2.55 8.35)
		(end 12.55 8.35)
		(stroke
			(width 0.1)
			(type solid)
		)
		(layer "F.Fab")
		(uuid "2fd79d41-c1b7-4d97-80be-43bcb0a1815d")
	)
	(fp_line
		(start 6.05 5.098076)
		(end 6.05 -0.098076)
		(stroke
			(width 0.1)
			(type solid)
		)
		(layer "F.Fab")
		(uuid "54f3d395-81f1-4345-87e0-1c20ffbd3446")
	)
	(fp_line
		(start 13.55 -2.35)
		(end 13.55 7.35)
		(stroke
			(width 0.1)
			(type solid)
		)
		(layer "F.Fab")
		(uuid "d9d7b385-e28c-4020-88c7-7c70abe6f409")
	)
	(fp_arc
		(start 1.55 -2.35)
		(mid 1.842893 -3.057107)
		(end 2.55 -3.35)
		(stroke
			(width 0.1)
			(type solid)
		)
		(layer "F.Fab")
		(uuid "7c9bef6d-a45d-49ed-a7ce-be5791c1e31f")
	)
	(fp_arc
		(start 2.55 8.35)
		(mid 1.842893 8.057107)
		(end 1.55 7.35)
		(stroke
			(width 0.1)
			(type solid)
		)
		(layer "F.Fab")
		(uuid "c028aa65-79f7-49ed-9cbd-e2cccd1152ea")
	)
	(fp_arc
		(start 12.55 -3.35)
		(mid 13.257107 -3.057107)
		(end 13.55 -2.35)
		(stroke
			(width 0.1)
			(type solid)
		)
		(layer "F.Fab")
		(uuid "8ffc8b39-2be7-4022-b524-548cb10b9bd7")
	)
	(fp_arc
		(start 13.55 7.35)
		(mid 13.257107 8.057107)
		(end 12.55 8.35)
		(stroke
			(width 0.1)
			(type solid)
		)
		(layer "F.Fab")
		(uuid "3b226098-7861-4a17-875e-a32a723d44eb")
	)
	(fp_circle
		(center 7.55 2.5)
		(end 10.55 2.5)
		(stroke
			(width 0.1)
			(type solid)
		)
		(fill none)
		(layer "F.Fab")
		(uuid "18049a87-652a-45da-a700-c1bd2c496278")
	)
	(fp_circle
		(center 7.55 2.5)
		(end 11.05 2.5)
		(stroke
			(width 0.1)
			(type solid)
		)
		(fill none)
		(layer "F.Fab")
		(uuid "eaf15d45-4f32-4c35-a274-00dffd6b5a2c")
	)
	(fp_text user "${REFERENCE}"
		(at 7.5 2.5 0)
		(unlocked yes)
		(layer "F.Fab")
		(uuid "0aa87938-2398-4f52-9ca6-a9d1e5c76107")
		(effects
			(font
				(size 1 1)
				(thickness 0.15)
			)
		)
	)
	(pad "A" thru_hole roundrect
		(at 0 0)
		(size 1.6 1.6)
		(drill 1)
		(layers "*.Cu" "*.Mask")
		(remove_unused_layers no)
		(roundrect_rratio 0.15625)
		(uuid "3ae0aab8-38fe-4b77-b802-3741dbc3df3c")
	)
	(pad "B" thru_hole circle
		(at 0 5)
		(size 1.6 1.6)
		(drill 1)
		(layers "*.Cu" "*.Mask")
		(remove_unused_layers no)
		(uuid "e6d8808b-0dd3-4fe0-81e6-ceac2ac51902")
	)
	(pad "C" thru_hole circle
		(at 0 2.5)
		(size 1.6 1.6)
		(drill 1)
		(layers "*.Cu" "*.Mask")
		(remove_unused_layers no)
		(uuid "6e0ffe80-064a-4cfd-90da-40587574d371")
	)
	(pad "MP" thru_hole oval
		(at 7.5 -3.2)
		(size 3.1 2.4)
		(drill oval 2.1 1.4)
		(layers "*.Cu" "*.Mask")
		(remove_unused_layers no)
		(uuid "9c54d090-2248-40f8-87b3-5be9980112a1")
	)
	(pad "MP" thru_hole oval
		(at 7.5 8.2)
		(size 3.1 2.4)
		(drill oval 2.1 1.4)
		(layers "*.Cu" "*.Mask")
		(remove_unused_layers no)
		(uuid "055da8b6-5d63-4195-bf8d-06db6f7b143d")
	)
	(pad "S1" thru_hole circle
		(at 14.5 0)
		(size 1.6 1.6)
		(drill 1)
		(layers "*.Cu" "*.Mask")
		(remove_unused_layers no)
		(uuid "efdcee69-74cc-4463-aed7-63b73dbb139e")
	)
	(pad "S2" thru_hole circle
		(at 14.5 5)
		(size 1.6 1.6)
		(drill 1)
		(layers "*.Cu" "*.Mask")
		(remove_unused_layers no)
		(uuid "e78be8d3-d9be-4912-829f-3a95e1652255")
	)
	(group ""
		(uuid "573d14d8-0df8-41ec-b532-c55af8dacd13")
		(members "1374bf52-cecf-4991-84ba-d3e6ba8fa02c" "2a457e24-308a-4020-b986-eea485de19b7"
			"3ca5ac59-4270-4a70-9a12-3256ab8079ff" "46886f79-3550-44cb-937d-b1cd272aeb90"
			"50653e4f-f4c1-453d-847d-bc7516980d3b" "589a9e05-82a3-4dd2-b113-c4394e7d1e31"
			"70a26926-c742-42a3-86ac-04556e7c3330" "7b8b0d89-8d3c-40bb-b53d-af3c44c9b824"
			"a28c2b1b-2a84-49ea-b065-fc954511d3e3" "b31c679c-b2c1-42c0-b96d-a5b06176166f"
			"deea1bc2-b02a-471d-b7ee-e3b20e08fff4" "e4e61bad-31f6-4e5e-be8a-f68e6787890d"
		)
	)
	(group ""
		(uuid "c223fea3-7b09-4cd2-896d-72f434064899")
		(members "10fa7b2a-8c8e-4e91-af25-96242a81f395" "1a136539-af9c-4435-8476-36387dbcf86f"
			"2f14c6c6-38ff-42f0-8e44-b878bafcc9ef" "4991335c-6acb-4026-bdfc-7467fa979ea3"
			"4fbcd905-b396-4db8-83ec-fd8f60c524f5" "53ba1ca5-5e3f-4da6-b98d-0ac164867748"
			"54ee3425-bbc5-433d-9ddd-271112838f96" "5c8ccaf6-b1da-4282-b425-e251139b40ae"
			"697a1340-ecc0-4738-9afb-4e3eb919ae40" "755ded9f-6c89-4b23-b4e7-3bce79f11562"
			"7ee9a84b-7a1d-4774-93a3-68d2491fb042" "843f9a99-ef05-40ae-ad16-0da54f09f017"
			"9de22b48-c554-4dc3-84c4-66e72d3106ec" "aa118d76-0fd2-4ab2-9da3-c8c419ffe210"
			"abde7fe1-b66e-4ebe-9c19-3989e8c7c98e" "be17d74e-f9ec-44c5-8b18-abbe026308b0"
			"bf4da81f-9e4d-4e93-96ac-5bb0a5b9dd5d" "d11d9d93-14c6-4179-bdfb-bdf0bd14d11f"
			"d3a49b5a-67e5-4031-9103-a4ce38ef09f4" "da569002-66bb-4fea-a90f-dce04578c8fb"
			"de6a8f43-0a17-4c5d-a25b-4e33a591e0d8" "e60214aa-1c8b-4f63-a3e8-c92cfd53121b"
			"e6ad1d0d-7136-4c34-a940-ed62da70fb53"
		)
	)
	(group ""
		(uuid "470e34be-be0d-424a-b258-74c4c87070c6")
		(members "18049a87-652a-45da-a700-c1bd2c496278" "2fd79d41-c1b7-4d97-80be-43bcb0a1815d"
			"3b226098-7861-4a17-875e-a32a723d44eb" "54f3d395-81f1-4345-87e0-1c20ffbd3446"
			"56adf6c4-aee7-4bb9-a68d-d6d085a81f87" "7c9bef6d-a45d-49ed-a7ce-be5791c1e31f"
			"8ffc8b39-2be7-4022-b524-548cb10b9bd7" "c028aa65-79f7-49ed-9cbd-e2cccd1152ea"
			"d9d7b385-e28c-4020-88c7-7c70abe6f409" "eaf15d45-4f32-4c35-a274-00dffd6b5a2c"
			"f4e3f203-706c-4a72-b351-6d070d45f7c9"
		)
	)
	(model ":IREX_3DMODEL_DIR:irex_Rotary_Encoder.3dshapes/RotaryEncodoer_Bourns_Vertical_PEC11L-4xxxF-Sxxxx_ShieldPads.step"
		(offset
			(xyz 0 0 0)
		)
		(scale
			(xyz 1 1 1)
		)
		(rotate
			(xyz 0 0 0)
		)
	)
)
